%!PS-Adobe-3.0 EPSF-3.0
%%Creator: cairo 1.16.0 (https://cairographics.org)
%%CreationDate: Wed Jun 29 10:03:03 2022
%%Pages: 1
%%DocumentData: Clean7Bit
%%LanguageLevel: 2
%%BoundingBox: 70 0 223 138
%%EndComments
%%BeginProlog
50 dict begin
/q { gsave } bind def
/Q { grestore } bind def
/cm { 6 array astore concat } bind def
/w { setlinewidth } bind def
/J { setlinecap } bind def
/j { setlinejoin } bind def
/M { setmiterlimit } bind def
/d { setdash } bind def
/m { moveto } bind def
/l { lineto } bind def
/c { curveto } bind def
/h { closepath } bind def
/re { exch dup neg 3 1 roll 5 3 roll moveto 0 rlineto
      0 exch rlineto 0 rlineto closepath } bind def
/S { stroke } bind def
/f { fill } bind def
/f* { eofill } bind def
/n { newpath } bind def
/W { clip } bind def
/W* { eoclip } bind def
/BT { } bind def
/ET { } bind def
/BDC { mark 3 1 roll /BDC pdfmark } bind def
/EMC { mark /EMC pdfmark } bind def
/cairo_store_point { /cairo_point_y exch def /cairo_point_x exch def } def
/Tj { show currentpoint cairo_store_point } bind def
/TJ {
  {
    dup
    type /stringtype eq
    { show } { -0.001 mul 0 cairo_font_matrix dtransform rmoveto } ifelse
  } forall
  currentpoint cairo_store_point
} bind def
/cairo_selectfont { cairo_font_matrix aload pop pop pop 0 0 6 array astore
    cairo_font exch selectfont cairo_point_x cairo_point_y moveto } bind def
/Tf { pop /cairo_font exch def /cairo_font_matrix where
      { pop cairo_selectfont } if } bind def
/Td { matrix translate cairo_font_matrix matrix concatmatrix dup
      /cairo_font_matrix exch def dup 4 get exch 5 get cairo_store_point
      /cairo_font where { pop cairo_selectfont } if } bind def
/Tm { 2 copy 8 2 roll 6 array astore /cairo_font_matrix exch def
      cairo_store_point /cairo_font where { pop cairo_selectfont } if } bind def
/g { setgray } bind def
/rg { setrgbcolor } bind def
/d1 { setcachedevice } bind def
/cairo_data_source {
  CairoDataIndex CairoData length lt
    { CairoData CairoDataIndex get /CairoDataIndex CairoDataIndex 1 add def }
    { () } ifelse
} def
/cairo_flush_ascii85_file { cairo_ascii85_file status { cairo_ascii85_file flushfile } if } def
/cairo_image { image cairo_flush_ascii85_file } def
/cairo_imagemask { imagemask cairo_flush_ascii85_file } def
%%EndProlog
%%BeginSetup
%%EndSetup
%%Page: 1 1
%%BeginPageSetup
%%PageBoundingBox: 70 0 223 138
%%EndPageSetup
q 70 0 153 138 rectclip
1 0 0 -1 0 145 cm q
0.00392157 g
90.75 93 m 91.59 94.133 93.285 94.133 94.125 93 c 114 68.699 l 114.977 
67.5 114.523 66.602 113.023 66.602 c 102.449 66.602 l 101.059 66.699 99.984
 65.395 100.352 64.051 c 104.91 43.332 120.953 27.07 141.605 22.23 c 162.258
 17.387 183.855 24.828 197.148 41.359 c 210.438 57.891 213.066 80.582 203.902
 99.711 c 194.738 118.844 175.414 131.02 154.199 131.023 c 150.555 131.023
 147.602 133.98 147.602 137.625 c 147.602 141.27 150.555 144.227 154.199
 144.227 c 180.793 144.262 204.996 128.879 216.258 104.789 c 227.516 80.695
 223.793 52.262 206.707 31.883 c 189.625 11.504 162.277 2.875 136.59 9.754
 c 110.902 16.637 91.531 37.785 86.926 63.977 c 86.645 65.465 85.363 66.555
 83.852 66.602 c 71.852 66.602 l 70.426 66.602 69.977 67.5 70.875 68.699
 c h
90.75 93 m f
190.199 100.273 m 190.199 99.227 l 189.98 97.809 189.469 96.457 188.699
 95.25 c 190.5 95.25 l 194.801 95.324 198.48 92.164 199.051 87.898 c 199.051
 87.602 199.125 87.301 199.125 87 c 199.148 85.281 198.621 83.602 197.625
 82.199 c 201.695 81.879 204.98 78.75 205.5 74.699 c 205.559 74.379 205.586
 74.051 205.574 73.727 c 205.586 69.227 202.109 65.492 197.625 65.176 c 
198.402 64.062 198.895 62.773 199.051 61.426 c 199.109 61.055 199.137 60.676
 199.125 60.301 c 199.125 55.594 195.355 51.758 190.648 51.676 c 161.773
 51.676 l 163.648 49.801 l 165.23 48.262 166.121 46.152 166.125 43.949 c
 166.133 40.574 164.137 37.512 161.043 36.16 c 157.949 34.809 154.348 35.426
 151.875 37.727 c 128.102 55.801 l 122.926 56.25 l 119.871 56.484 117.516
 59.035 117.523 62.102 c 117.523 95.176 l 117.535 98.121 119.707 100.613
 122.625 101.023 c 128.773 101.852 l 132.824 104.398 138.301 106.125 144.898
 107.324 c 151.5 108.523 157.574 108.75 165.301 108.75 c 181.727 108.75 
l 183.973 108.75 186.129 107.855 187.719 106.27 c 189.309 104.68 190.199
 102.523 190.199 100.273 c h
123.148 96.977 m 122.234 96.828 121.562 96.027 121.574 95.102 c 121.574
 62.023 l 121.531 61.059 122.262 60.23 123.227 60.148 c 129.449 59.699 l
 154.5 40.801 l 156.25 39.086 159.051 39.086 160.801 40.801 c 162.516 42.551
 162.516 45.352 160.801 47.102 c 155.773 52.426 l 155.383 52.762 155.164
 53.258 155.176 53.773 c 155.172 54.914 156.141 55.812 157.273 55.727 c 
190.648 55.727 l 193.148 55.766 195.148 57.801 195.148 60.301 c 195.16 60.477
 195.137 60.656 195.074 60.824 c 194.805 63.133 192.824 64.855 190.5 64.801
 c 167.477 64.801 l 166.285 64.801 165.332 65.785 165.375 66.977 c 165.375
 68.176 166.348 69.148 167.551 69.148 c 197.102 69.148 l 199.598 69.191 
201.602 71.227 201.602 73.727 c 201.605 73.902 201.582 74.082 201.523 74.25
 c 201.188 76.512 199.234 78.176 196.949 78.148 c 167.477 78.148 l 165.02
 78.605 165.02 82.121 167.477 82.574 c 190.574 82.574 l 193.047 82.531 195.074
 84.527 195.074 87 c 195.074 87.449 l 194.703 89.68 192.762 91.305 190.5
 91.273 c 167.551 91.273 l 166.258 91.391 165.258 92.453 165.227 93.75 c
 165.227 94.875 166.199 95.551 167.398 95.551 c 181.574 95.551 l 183.898
 95.566 185.852 97.297 186.148 99.602 c 186.207 99.77 186.23 99.945 186.227
 100.125 c 186.227 102.609 184.211 104.625 181.727 104.625 c 165.301 104.625
 l 151.273 104.625 138.301 102.977 130.5 97.949 c 130.25 97.809 129.965 
97.73 129.676 97.727 c h
123.148 96.977 m f
Q Q
showpage
%%Trailer
end
%%EOF
