%!PS-Adobe-3.0 EPSF-3.0
%%Creator: cairo 1.16.0 (https://cairographics.org)
%%CreationDate: Wed Jun 29 15:57:33 2022
%%Pages: 1
%%DocumentData: Clean7Bit
%%LanguageLevel: 2
%%BoundingBox: 0 0 31 46
%%EndComments
%%BeginProlog
50 dict begin
/q { gsave } bind def
/Q { grestore } bind def
/cm { 6 array astore concat } bind def
/w { setlinewidth } bind def
/J { setlinecap } bind def
/j { setlinejoin } bind def
/M { setmiterlimit } bind def
/d { setdash } bind def
/m { moveto } bind def
/l { lineto } bind def
/c { curveto } bind def
/h { closepath } bind def
/re { exch dup neg 3 1 roll 5 3 roll moveto 0 rlineto
      0 exch rlineto 0 rlineto closepath } bind def
/S { stroke } bind def
/f { fill } bind def
/f* { eofill } bind def
/n { newpath } bind def
/W { clip } bind def
/W* { eoclip } bind def
/BT { } bind def
/ET { } bind def
/BDC { mark 3 1 roll /BDC pdfmark } bind def
/EMC { mark /EMC pdfmark } bind def
/cairo_store_point { /cairo_point_y exch def /cairo_point_x exch def } def
/Tj { show currentpoint cairo_store_point } bind def
/TJ {
  {
    dup
    type /stringtype eq
    { show } { -0.001 mul 0 cairo_font_matrix dtransform rmoveto } ifelse
  } forall
  currentpoint cairo_store_point
} bind def
/cairo_selectfont { cairo_font_matrix aload pop pop pop 0 0 6 array astore
    cairo_font exch selectfont cairo_point_x cairo_point_y moveto } bind def
/Tf { pop /cairo_font exch def /cairo_font_matrix where
      { pop cairo_selectfont } if } bind def
/Td { matrix translate cairo_font_matrix matrix concatmatrix dup
      /cairo_font_matrix exch def dup 4 get exch 5 get cairo_store_point
      /cairo_font where { pop cairo_selectfont } if } bind def
/Tm { 2 copy 8 2 roll 6 array astore /cairo_font_matrix exch def
      cairo_store_point /cairo_font where { pop cairo_selectfont } if } bind def
/g { setgray } bind def
/rg { setrgbcolor } bind def
/d1 { setcachedevice } bind def
/cairo_data_source {
  CairoDataIndex CairoData length lt
    { CairoData CairoDataIndex get /CairoDataIndex CairoDataIndex 1 add def }
    { () } ifelse
} def
/cairo_flush_ascii85_file { cairo_ascii85_file status { cairo_ascii85_file flushfile } if } def
/cairo_image { image cairo_flush_ascii85_file } def
/cairo_imagemask { imagemask cairo_flush_ascii85_file } def
%%EndProlog
%%BeginSetup
%%EndSetup
%%Page: 1 1
%%BeginPageSetup
%%PageBoundingBox: 0 0 31 46
%%EndPageSetup
q 0 0 31 46 rectclip
1 0 0 -1 0 46 cm q
0.00392157 0 0.00784314 rg
20.219 4.52 m 20.219 7.02 18.195 9.043 15.699 9.043 c 13.203 9.043 11.18
 7.02 11.18 4.52 c 11.18 2.023 13.203 0 15.699 0 c 18.195 0 20.219 2.023
 20.219 4.52 c h
20.219 4.52 m f
30.238 1.344 m 29.492 0.594 28.281 0.594 27.531 1.344 c 18.359 10.516 l
 17.629 10.039 16.762 9.758 15.824 9.758 c 14.668 9.758 13.617 10.184 12.805
 10.879 c 3.266 1.344 l 2.52 0.594 1.309 0.594 0.562 1.344 c -0.188 2.09
 -0.188 3.301 0.562 4.051 c 10.613 14.102 l 10.781 14.27 10.973 14.395 11.176
 14.484 c 11.176 25.344 l 11.176 25.707 11.223 26.059 11.301 26.398 c 5.172
 41.672 l 4.719 42.793 5.266 44.07 6.387 44.52 c 6.652 44.629 6.93 44.676
 7.199 44.676 c 8.066 44.676 8.887 44.16 9.23 43.305 c 14.637 29.832 l 15.016
 29.934 15.414 29.992 15.824 29.992 c 16.297 29.992 16.75 29.918 17.18 29.789
 c 21.512 43.695 l 21.805 44.633 22.668 45.23 23.602 45.23 c 23.816 45.23
 24.035 45.199 24.254 45.129 c 25.406 44.77 26.051 43.547 25.691 42.395 
c 20.645 26.211 l 20.598 26.055 20.527 25.906 20.449 25.77 c 20.461 25.629
 20.469 25.488 20.469 25.344 c 20.469 14.406 l 20.469 14.219 20.453 14.035
 20.434 13.852 c 30.234 4.047 l 30.988 3.305 30.988 2.09 30.238 1.344 c 
h
30.238 1.344 m f
Q Q
showpage
%%Trailer
end
%%EOF
