%!PS-Adobe-3.0 EPSF-3.0
%%Creator: cairo 1.16.0 (https://cairographics.org)
%%CreationDate: Wed Jun 29 15:57:04 2022
%%Pages: 1
%%DocumentData: Clean7Bit
%%LanguageLevel: 2
%%BoundingBox: 0 0 110 149
%%EndComments
%%BeginProlog
50 dict begin
/q { gsave } bind def
/Q { grestore } bind def
/cm { 6 array astore concat } bind def
/w { setlinewidth } bind def
/J { setlinecap } bind def
/j { setlinejoin } bind def
/M { setmiterlimit } bind def
/d { setdash } bind def
/m { moveto } bind def
/l { lineto } bind def
/c { curveto } bind def
/h { closepath } bind def
/re { exch dup neg 3 1 roll 5 3 roll moveto 0 rlineto
      0 exch rlineto 0 rlineto closepath } bind def
/S { stroke } bind def
/f { fill } bind def
/f* { eofill } bind def
/n { newpath } bind def
/W { clip } bind def
/W* { eoclip } bind def
/BT { } bind def
/ET { } bind def
/BDC { mark 3 1 roll /BDC pdfmark } bind def
/EMC { mark /EMC pdfmark } bind def
/cairo_store_point { /cairo_point_y exch def /cairo_point_x exch def } def
/Tj { show currentpoint cairo_store_point } bind def
/TJ {
  {
    dup
    type /stringtype eq
    { show } { -0.001 mul 0 cairo_font_matrix dtransform rmoveto } ifelse
  } forall
  currentpoint cairo_store_point
} bind def
/cairo_selectfont { cairo_font_matrix aload pop pop pop 0 0 6 array astore
    cairo_font exch selectfont cairo_point_x cairo_point_y moveto } bind def
/Tf { pop /cairo_font exch def /cairo_font_matrix where
      { pop cairo_selectfont } if } bind def
/Td { matrix translate cairo_font_matrix matrix concatmatrix dup
      /cairo_font_matrix exch def dup 4 get exch 5 get cairo_store_point
      /cairo_font where { pop cairo_selectfont } if } bind def
/Tm { 2 copy 8 2 roll 6 array astore /cairo_font_matrix exch def
      cairo_store_point /cairo_font where { pop cairo_selectfont } if } bind def
/g { setgray } bind def
/rg { setrgbcolor } bind def
/d1 { setcachedevice } bind def
/cairo_data_source {
  CairoDataIndex CairoData length lt
    { CairoData CairoDataIndex get /CairoDataIndex CairoDataIndex 1 add def }
    { () } ifelse
} def
/cairo_flush_ascii85_file { cairo_ascii85_file status { cairo_ascii85_file flushfile } if } def
/cairo_image { image cairo_flush_ascii85_file } def
/cairo_imagemask { imagemask cairo_flush_ascii85_file } def
%%EndProlog
%%BeginSetup
%%EndSetup
%%Page: 1 1
%%BeginPageSetup
%%PageBoundingBox: 0 0 110 149
%%EndPageSetup
q 0 0 110 149 rectclip
1 0 0 -1 0 149 cm q
0 g
67.488 12.453 m 67.488 19.332 61.836 24.91 54.863 24.91 c 47.895 24.91 
42.242 19.332 42.242 12.453 c 42.242 5.574 47.895 0 54.863 0 c 61.836 0 
67.488 5.574 67.488 12.453 c h
67.488 12.453 m f
108.41 31.301 m 106.656 29.543 103.805 29.543 102.047 31.301 c 90.125 43.227
 l 89.906 43.445 89.605 43.57 89.297 43.57 c 88.988 43.57 88.688 43.445 
88.469 43.227 c 85.684 40.438 76.645 31.398 73.273 28.027 c 72.27 27.023
 70.914 26.734 69.594 26.734 c 62.066 26.734 47.492 26.734 40.137 26.734
 c 38.82 26.734 37.465 27.023 36.461 28.027 c 32.859 31.629 24.016 40.473
 21.266 43.223 c 21.047 43.445 20.746 43.566 20.438 43.566 c 20.125 43.566
 19.828 43.445 19.605 43.223 c 7.684 31.301 l 5.926 29.543 3.074 29.543 
1.32 31.301 c -0.441 33.059 -0.441 35.906 1.32 37.664 c 17.254 53.602 l 
18.098 54.445 19.242 54.918 20.438 54.918 c 21.629 54.918 22.781 54.445 
23.625 53.602 c 39.672 37.527 l 39.809 142.238 l 39.809 145.969 42.836 148.988
 46.562 148.988 c 50.293 148.988 53.32 145.969 53.32 142.238 c 53.32 91.25
 l 56.41 91.25 l 56.41 142.238 l 56.41 145.969 59.438 148.988 63.168 148.988
 c 66.895 148.988 69.922 145.969 69.922 142.238 c 70.062 37.527 l 86.125
 53.602 l 86.969 54.445 88.109 54.918 89.301 54.918 c 90.496 54.918 91.637
 54.445 92.48 53.602 c 108.414 37.664 l 110.172 35.906 110.168 33.059 108.41
 31.301 c h
108.41 31.301 m f
Q Q
showpage
%%Trailer
end
%%EOF
