%!PS-Adobe-3.0 EPSF-3.0
%%Creator: cairo 1.16.0 (https://cairographics.org)
%%CreationDate: Wed Jun 29 15:57:04 2022
%%Pages: 1
%%DocumentData: Clean7Bit
%%LanguageLevel: 2
%%BoundingBox: 0 0 118 142
%%EndComments
%%BeginProlog
50 dict begin
/q { gsave } bind def
/Q { grestore } bind def
/cm { 6 array astore concat } bind def
/w { setlinewidth } bind def
/J { setlinecap } bind def
/j { setlinejoin } bind def
/M { setmiterlimit } bind def
/d { setdash } bind def
/m { moveto } bind def
/l { lineto } bind def
/c { curveto } bind def
/h { closepath } bind def
/re { exch dup neg 3 1 roll 5 3 roll moveto 0 rlineto
      0 exch rlineto 0 rlineto closepath } bind def
/S { stroke } bind def
/f { fill } bind def
/f* { eofill } bind def
/n { newpath } bind def
/W { clip } bind def
/W* { eoclip } bind def
/BT { } bind def
/ET { } bind def
/BDC { mark 3 1 roll /BDC pdfmark } bind def
/EMC { mark /EMC pdfmark } bind def
/cairo_store_point { /cairo_point_y exch def /cairo_point_x exch def } def
/Tj { show currentpoint cairo_store_point } bind def
/TJ {
  {
    dup
    type /stringtype eq
    { show } { -0.001 mul 0 cairo_font_matrix dtransform rmoveto } ifelse
  } forall
  currentpoint cairo_store_point
} bind def
/cairo_selectfont { cairo_font_matrix aload pop pop pop 0 0 6 array astore
    cairo_font exch selectfont cairo_point_x cairo_point_y moveto } bind def
/Tf { pop /cairo_font exch def /cairo_font_matrix where
      { pop cairo_selectfont } if } bind def
/Td { matrix translate cairo_font_matrix matrix concatmatrix dup
      /cairo_font_matrix exch def dup 4 get exch 5 get cairo_store_point
      /cairo_font where { pop cairo_selectfont } if } bind def
/Tm { 2 copy 8 2 roll 6 array astore /cairo_font_matrix exch def
      cairo_store_point /cairo_font where { pop cairo_selectfont } if } bind def
/g { setgray } bind def
/rg { setrgbcolor } bind def
/d1 { setcachedevice } bind def
/cairo_data_source {
  CairoDataIndex CairoData length lt
    { CairoData CairoDataIndex get /CairoDataIndex CairoDataIndex 1 add def }
    { () } ifelse
} def
/cairo_flush_ascii85_file { cairo_ascii85_file status { cairo_ascii85_file flushfile } if } def
/cairo_image { image cairo_flush_ascii85_file } def
/cairo_imagemask { imagemask cairo_flush_ascii85_file } def
%%EndProlog
%%BeginSetup
%%EndSetup
%%Page: 1 1
%%BeginPageSetup
%%PageBoundingBox: 0 0 118 142
%%EndPageSetup
q 0 0 118 142 rectclip
1 0 0 -1 0 142 cm q
Q q
q
0 0 118 142 re W n
  q
0 g
104.16 117.301 m 102.434 117.148 l 100.184 116.852 98.008 116.102 96.133
 114.824 c 96.133 117.602 l 96.133 124.648 91.184 130.648 84.285 131.398
 c 82.785 131.398 l 80.086 131.398 77.383 130.5 75.059 129 c 74.535 135.602
 69.508 140.926 62.984 141.824 c 61.41 141.824 l 54.211 141.824 48.133 136.199
 47.758 129 c 45.961 130.273 43.859 131.102 41.609 131.398 c 39.883 131.398
 l 32.234 131.477 26.086 125.324 26.008 117.75 c 26.008 71.324 l 23.008 
74.324 l 17.758 79.574 9.211 79.5 4.035 74.25 c 4.035 74.25 4.035 74.25 
3.961 74.176 c -1.141 69 -1.367 60.676 3.586 55.273 c 32.684 17.023 l 33.359
 8.773 l 33.809 3.824 37.859 0 42.883 0 c 96.059 0 l 100.785 0 104.836 3.523
 105.508 8.25 c 106.785 18.074 l 110.91 24.676 113.758 33.375 115.633 44.176
 c 117.359 53.477 117.961 64.574 117.961 77.023 c 117.961 103.574 l 117.734
 111.148 111.734 117.227 104.16 117.301 c h
98.836 9.227 m 98.609 7.727 97.336 6.602 95.836 6.676 c 42.586 6.676 l 
41.008 6.602 39.66 7.801 39.586 9.375 c 38.758 19.426 l 8.309 59.699 l 5.535
 62.477 5.609 67.125 8.383 69.824 c 9.734 71.102 11.535 71.852 13.41 71.926
 c 15.285 71.926 17.16 71.102 18.434 69.75 c 26.984 61.648 l 27.586 61.051
 28.336 60.75 29.16 60.75 c 30.961 60.824 32.383 62.25 32.309 64.051 c 32.309
 117.898 l 32.383 121.949 35.684 125.176 39.734 125.102 c 40.633 125.102
 l 44.309 124.574 46.934 121.426 46.934 117.75 c 46.934 80.699 l 46.934 
78.75 48.434 77.25 50.383 77.25 c 50.461 77.25 l 52.41 77.25 53.984 78.824
 53.984 80.773 c 53.984 128.324 l 54.059 132.301 57.285 135.523 61.258 135.523
 c 62.16 135.523 l 65.836 135 68.535 131.852 68.535 128.176 c 68.535 80.699
 l 68.461 78.75 69.961 77.25 71.91 77.176 c 71.984 77.176 l 73.934 77.176
 75.434 78.676 75.508 80.625 c 75.508 117.824 l 75.586 121.801 78.809 125.023
 82.785 125.023 c 83.383 125.023 l 87.133 124.574 89.609 121.352 89.609 
117.602 c 89.609 80.699 l 89.609 78.676 91.633 76.875 93.66 76.875 c 93.734
 76.875 l 95.609 76.875 96.66 78.602 96.66 80.398 c 96.66 103.273 l 96.734
 107.023 99.434 110.176 103.184 110.699 c 104.008 110.699 l 107.984 110.699
 111.211 107.477 111.211 103.5 c 111.211 77.102 l 111.211 54.523 108.586
 33.602 100.484 20.926 c 100.258 20.551 100.184 20.102 100.109 19.727 c 
h
98.836 9.227 m f
  Q
Q
Q Q
showpage
%%Trailer
end
%%EOF
