

#(define version-seen #t)
#(define output-empty-score-list #f)
#(ly:add-file-name-alist '(
("be/lily-75dbaea5.ly" . "Davide_Tedesco-Talemente_Poco-Partitura_completa.lytex")
("da/lily-14698ad5.ly" . "Davide_Tedesco-Talemente_Poco-Partitura_completa.lytex")
))
