

#(define version-seen #t)
#(define output-empty-score-list #f)
#(ly:add-file-name-alist '(
("7a/lily-63f7c762.ly" . "Davide_Tedesco-Talmente_Poco-Partitura_completa.lytex")
("c2/lily-a7443625.ly" . "Davide_Tedesco-Talmente_Poco-Partitura_completa.lytex")
))
