


primavoce =     
\relative{ 
 r2^\markup{tacet}  \stopStaff
 s2 \mark \markup{\italic\column{\line{Tutti gli esecutori con gli occhi }\line{chiusi ad eccezione del Mezzosoprano}}}
   %\override Rest.transparent = ##t
  %s1*19
}