%% Generated by lilypond-book
%% Options: [fragment,indent=0\mm,line-width=513\pt,quote,relative=2,staffsize=16]
\include "lilypond-book-preamble.ly"


% ****************************************************************
% Start cut-&-pastable-section
% ****************************************************************

#(set-global-staff-size 16)

\paper {
  indent = 0\mm
  line-width = 513\pt
  % offset the left padding, also add 1mm as lilypond creates cropped
  % images with a little space on the right
  line-width = #(- line-width (* mm  3.000000) (* mm 1))
  line-width = 513\pt - 2.0 * 0.4\in
  % offset the left padding, also add 1mm as lilypond creates cropped
  % images with a little space on the right
  line-width = #(- line-width (* mm  3.000000) (* mm 1))
}

\layout {
  
}



\relative c''
{


% ****************************************************************
% ly snippet contents follows:
% ****************************************************************
\sourcefileline 365

\new Staff \with{ \remove Time_signature_engraver       \remove Clef_engraver \hide Staff.BarLine   

} {
\override Staff.StaffSymbol.line-count = #1
  \startStaff 
  \override Staff.NoteHead.style = #'triangle
                    \xNote b32  	
                    \xNote b16 
                    \xNote b8  
                    \xNote b4
                    
                    
                     \override NoteHead.stencil = #ly:text-interface::print
  \override NoteHead.text = #(markup #:musicglyph "noteheads.s2xcircle" ) 

                     b2 b2.  b1 b1 (
                       \revert NoteHead.stencil  \xNote b4) 
                     \override NoteHead.stencil = #ly:text-interface::print
  \override NoteHead.text = #(markup #:musicglyph "noteheads.s2xcircle" ) 
                     b1. b1 (b2.)               
\stopStaff

		   
                    
}  \addlyrics {[s] [s] [s] [s] [s] [s] [s] [s] [s] [s] }




% ****************************************************************
% end ly snippet
% ****************************************************************
}
