%!PS-Adobe-2.0 EPSF-2.0
%%Creator: LilyPond 2.22.2
%%BoundingBox: -9 -47 33 0
%%Orientation: Portrait
%%DocumentSuppliedResources: font Emmentaler-16
%%EndComments
%%BeginProlog
/lilypond-datadir where {pop} {userdict /lilypond-datadir (/Applications/LilyPond.app/Contents/Resources/share/lilypond/current) put } ifelse
%%BeginFont: Emmentaler-16
lilypond-datadir (/fonts/otf/emmentaler-16.otf) concatstrings (r) file .loadfont
%%EndFont

/magfontemmentaler-16mPBBo { /Emmentaler-16 5.6234 output-scale div selectfont } bind def
/lily-output-units 2.83464566929134 def %% millimeter
/staff-line-thickness 0.116428571428571 def
/line-width 110.950724409449 def
/paper-size (a4) def
/staff-height 4.0 def
/output-scale 1.40583921405839 def
/page-height 211.261712598425 def
/page-width 149.376968503937 def
%%BeginResource: procset (music-drawing-routines.ps) 1 0
%!PS-Adobe-2.0
%
% Functions for direct and embedded PostScript
%
% This file is part of LilyPond, the GNU music typesetter.
%
% Copyright (C) 1998-2006 Han-Wen Nienhuys <hanwen@xs4all.nl>,
%               2013-2019 David Kastrup <dak@gnu.org>
%
% LilyPond is free software: you can redistribute it and/or modify
% it under the terms of the GNU General Public License as published by
% the Free Software Foundation, either version 3 of the License, or
% (at your option) any later version.
%
% LilyPond is distributed in the hope that it will be useful,
% but WITHOUT ANY WARRANTY; without even the implied warranty of
% MERCHANTABILITY or FITNESS FOR A PARTICULAR PURPOSE.  See the
% GNU General Public License for more details.
%
% You should have received a copy of the GNU General Public License
% along with LilyPond.  If not, see <http://www.gnu.org/licenses/>.
%
% Careful with double % as comment prefix.
% Any %%X comment is interpreted as DSC comments.

% TODO: use dicts or prefixes to prevent namespace pollution.

/pdfmark where
{pop} {userdict /pdfmark /cleartomark load put} ifelse


% llx lly urx ury URI
/mark_URI
{
    /uri exch def
    /ury exch def
    /urx exch def
    /lly exch def
    /llx exch def
    [
	/Rect [ llx lly urx ury ]
	
	/Border [ 0 0 0 ]

        /Action
	    <<
		/Subtype /URI
		/URI uri
	    >>
        /Subtype /Link
    /ANN
    pdfmark
}
bind def

% llx lly urx ury page
/mark_page_link
{
    /page exch def
    /ury exch def
    /urx exch def
    /lly exch def
    /llx exch def
    [
        /Rect [ llx lly urx ury ]
        /Border [ 0 0 0 ]
        /Page page
        /Subtype /Link
    /ANN
    pdfmark
}
bind def

% from adobe tech note 5002.
/BeginEPSF { %def
    /b4_Inc_state save def % Save state for cleanup
    /dict_count countdictstack def % Count objects on dict stack
    /op_count count 1 sub def % Count objects on operand stack
    userdict begin % Push userdict on dict stack
    /showpage { } def % Redefine showpage, { } = null proc
    0 setgray 0 setlinecap % Prepare graphics state
    1 setlinewidth 0 setlinejoin
    10 setmiterlimit [ ] 0 setdash newpath
    false setoverprint
} bind def

/EndEPSF { %def
  count op_count sub {pop} repeat % Clean up stacks
  countdictstack dict_count sub {end} repeat
  b4_Inc_state restore
} bind def

/stroke_and_fill? {
    {
	gsave
	    false setstrokeadjust
	    stroke
	grestore
	fill
    }
    {
	stroke
    }
    ifelse
} bind def

/vector_add { % x1 y1 x2 y2 vector_add x1+x2 y1+y2
	exch
	4 1 roll
	add
	3 1 roll
	add
	exch
} bind def

/draw_round_box % width height x y blot
{
    dup 0 lt { pop 0 } if setlinewidth
    matrix currentmatrix 5 1 roll
    currentpoint translate newpath translate
    2 copy dup 0 gt { pop 0 } if exch dup 0 gt { pop 0 } if exch translate
    abs exch abs exch
    currentlinewidth 0 eq
    { % straight corners
	2 copy 2 mul gt
	{ % horizontal
	    0 1 index 2 div moveto
	    setlinewidth
	    0 rlineto
	    0 setlinecap
	    stroke
	}
	{
	    2 copy exch 2 mul gt
	    { % vertical
		1 index 2 div 0 moveto
		exch setlinewidth
		0 exch rlineto
		0 setlinecap
		stroke
	    }
	    {
		0 0 4 2 roll rectfill
	    }
	    ifelse
	}
	ifelse
    }
    { % rounded corners
	2 copy 0 eq exch 0 eq or
	{ % line shape
	    0 0 moveto
	    rlineto
	    1 setlinecap
	    stroke
	    0 setlinecap
	}
	{ % full shape
	    currentstrokeadjust {
		currentlinewidth 2 div
		0 0 2 index 180 270 arc
		2 index 0 2 index 270 360 arc
		3 copy 0 90 arc
		0 2 index 3 -1 roll 90 180 arc
		closepath
		2 copy 2 mul gt
		{ % horizontal
		    2 copy add currentlinewidth add 10 add % large enough
		    0 1 index neg moveto
		    2 index 1 index neg lineto
		    2 index 1 index lineto
		    0 exch lineto closepath
		    gsave clip newpath
		    0 1 index 2 div moveto
		    currentlinewidth add setlinewidth
		    0 rlineto
		    2 setlinecap
		    stroke
		    grestore
		}
		{
		    2 copy exch 2 mul gt
		    { % vertical
			2 copy add currentlinewidth add 10 add % large enough
			dup neg 0 moveto
			dup 0 lineto
			dup 2 index lineto
			neg 1 index lineto closepath
			gsave clip newpath
			1 index 2 div 0 moveto
			exch currentlinewidth add setlinewidth
			0 exch rlineto
			2 setlinecap
			stroke
			grestore
		    }
		    {
			pop pop
			fill
		    }
		    ifelse
		}
		ifelse
		newpath
	    }
	    {
		1 setlinejoin
		0 0 4 2 roll 4 copy rectstroke rectfill
	    }
	    ifelse
	}
	ifelse
    }
    ifelse
    setmatrix
} bind def

/draw_polygon % fill? x(n) y(n) x(n-1) y(n-1) ... x(0) y(0) n blot
{
	setlinewidth %set to blot

	0 setlinecap
	1 setlinejoin

	3 1 roll
	/polygon_x
	currentpoint
	/polygon_y exch def
	def
	rmoveto % x(0) y(0)
	{ polygon_x polygon_y vector_add lineto } repeat % n times
	closepath
	stroke_and_fill?
} bind def

/draw_circle % filled? radius thickness draw_circle
{
	setlinewidth	% f? r
	currentpoint	% f? r x0 y0
	3 2 roll	% f? x0 y0 r
	dup 0 rmoveto
	0 360 arc closepath
	stroke_and_fill?
} bind def

/draw_ellipse % filled? x-radius y-radius thickness draw_ellipse
{
  setlinewidth % f? x-r y-r
  /savematrix matrix currentmatrix def
  scale % f?
  currentpoint
  1 0 rmoveto
  1 0 360  arc closepath
  savematrix setmatrix
  stroke_and_fill?
} bind def

/draw_partial_ellipse % filled connect x-radius y-radius startangle endangle thickness draw_partial_ellipse
% Note that filled is not boolean to permit for different graylevels (ie for trill keys)
{
  gsave
  currentpoint translate
  /thickness exch def
  /endangle exch def
  /startangle exch def
  /y_radius exch def
  /x_radius exch def
  /endrad x_radius y_radius mul
    x_radius x_radius mul
    endangle cos endangle cos mul mul
    y_radius y_radius mul
    endangle sin endangle sin mul mul add sqrt div def
  /endangle endangle sin endrad mul y_radius div
    endangle cos endrad mul x_radius div atan def
  /startrad x_radius y_radius mul
    x_radius x_radius mul
      startangle cos startangle cos mul mul
    y_radius y_radius mul
      startangle sin startangle sin mul mul add sqrt div def
  /startangle startangle sin startrad mul y_radius div
    startangle cos startrad mul x_radius div atan def
  /connect exch def
  /filled exch def
  /savematrix matrix currentmatrix def
  thickness setlinewidth
  x_radius y_radius scale
  startangle cos startangle sin moveto
  0 0 1 startangle
    startangle endangle eq { endangle 360 add } { endangle } ifelse
    arc
  connect {
    startangle cos startangle sin moveto endangle cos endangle sin lineto }
    if
  savematrix setmatrix filled stroke_and_fill?
  grestore
} bind def

/draw_line % dx dy x1 y1 thickness draw_line
{
	setlinewidth % dx dy x1 y1
	1 setlinecap
	rmoveto % dx dy
	rlineto
	stroke
} bind def

/draw_dashed_line % dx dy thickness dashpattern offset draw_dashed_line
{
	1 setlinecap
	setdash % dx dy thickness
	setlinewidth %dx dy
	rlineto
	stroke
	[] 0 setdash % reset dash pattern
} bind def

/print_glyphs % w dx dy glyph print_glyphs
{
	{
		currentpoint %w dx dy glyph x0 y0
		5 2 roll %w x0 y0 dx dy glyph
		3 1 roll %w x0 y0 glyph dx dy
		rmoveto %w x0 y0 glyph
		glyphshow %w x0 y0
		moveto %w
		0 rmoveto
	}repeat
}bind def
%end music-drawing-routines.ps

%%EndResource
%%BeginResource: procset (lilyponddefs.ps) 1 0
%!PS-Adobe-2.0: lilyponddefs.ps
%
% Functions for direct PostScript output
%
% This file is part of LilyPond, the GNU music typesetter.
%
% Copyright (C) 1998-2004 Jan Nieuwenhuizen <janneke@gnu.org>,
%               1999-2006 Han-Wen Nienhuys <hanwen@xs4all.nl>,
%               2005 Werner Lemberg <wl@gnu.org>
%
% LilyPond is free software: you can redistribute it and/or modify
% it under the terms of the GNU General Public License as published by
% the Free Software Foundation, either version 3 of the License, or
% (at your option) any later version.
%
% LilyPond is distributed in the hope that it will be useful,
% but WITHOUT ANY WARRANTY; without even the implied warranty of
% MERCHANTABILITY or FITNESS FOR A PARTICULAR PURPOSE.  See the
% GNU General Public License for more details.
%
% You should have received a copy of the GNU General Public License
% along with LilyPond.  If not, see <http://www.gnu.org/licenses/>.
%

% /setgray { 1 add } bind def

/set-ps-scale-to-lily-scale {
	lily-output-units output-scale mul dup scale
} bind def


/init-paper {
	gsave
	clippath pathbbox newpath
	/paper-height exch def
	/paper-width exch def pop pop pop
	% FIXME
	/top-margin 2 def
	paper-width line-width sub 2 div /left-margin exch def
	grestore
} bind def

/init-lilypond-parameters {
	staff-line-thickness setlinewidth
	staff-height init-paper
} bind def


% end lilyponddefs.ps

%%EndResource
%%EndProlog
%%BeginSetup
init-lilypond-parameters
%%EndSetup

/mark_page_link { pop pop pop pop pop } bind def
gsave set-ps-scale-to-lily-scale
 0.0000 -8.2442 moveto
8.0960 0 0.0582 0 0.1164 draw_line
 3.9563 -8.2442 moveto
0.0514 2.5408 -0.0257 -3.2833 0.1000 draw_round_box
 3.6146 -3.3256 moveto

gsave
currentpoint translate
BeginEPSF
0.02325581 dup scale
0 0 translate
0 0 129 143 rectclip
%%BeginDocument: epsCD/pugno.eps
%!PS-Adobe-3.0 EPSF-3.0
%%Creator: cairo 1.16.0 (https://cairographics.org)
%%CreationDate: Wed Jun 29 09:56:09 2022
%%Pages: 1
%%DocumentData: Clean7Bit
%%LanguageLevel: 2
%%BoundingBox: 0 0 129 143
%%EndComments
%%BeginProlog
50 dict begin
/q { gsave } bind def
/Q { grestore } bind def
/cm { 6 array astore concat } bind def
/w { setlinewidth } bind def
/J { setlinecap } bind def
/j { setlinejoin } bind def
/M { setmiterlimit } bind def
/d { setdash } bind def
/m { moveto } bind def
/l { lineto } bind def
/c { curveto } bind def
/h { closepath } bind def
/re { exch dup neg 3 1 roll 5 3 roll moveto 0 rlineto
      0 exch rlineto 0 rlineto closepath } bind def
/S { stroke } bind def
/f { fill } bind def
/f* { eofill } bind def
/n { newpath } bind def
/W { clip } bind def
/W* { eoclip } bind def
/BT { } bind def
/ET { } bind def
/BDC { mark 3 1 roll /BDC pdfmark } bind def
/EMC { mark /EMC pdfmark } bind def
/cairo_store_point { /cairo_point_y exch def /cairo_point_x exch def } def
/Tj { show currentpoint cairo_store_point } bind def
/TJ {
  {
    dup
    type /stringtype eq
    { show } { -0.001 mul 0 cairo_font_matrix dtransform rmoveto } ifelse
  } forall
  currentpoint cairo_store_point
} bind def
/cairo_selectfont { cairo_font_matrix aload pop pop pop 0 0 6 array astore
    cairo_font exch selectfont cairo_point_x cairo_point_y moveto } bind def
/Tf { pop /cairo_font exch def /cairo_font_matrix where
      { pop cairo_selectfont } if } bind def
/Td { matrix translate cairo_font_matrix matrix concatmatrix dup
      /cairo_font_matrix exch def dup 4 get exch 5 get cairo_store_point
      /cairo_font where { pop cairo_selectfont } if } bind def
/Tm { 2 copy 8 2 roll 6 array astore /cairo_font_matrix exch def
      cairo_store_point /cairo_font where { pop cairo_selectfont } if } bind def
/g { setgray } bind def
/rg { setrgbcolor } bind def
/d1 { setcachedevice } bind def
/cairo_data_source {
  CairoDataIndex CairoData length lt
    { CairoData CairoDataIndex get /CairoDataIndex CairoDataIndex 1 add def }
    { () } ifelse
} def
/cairo_flush_ascii85_file { cairo_ascii85_file status { cairo_ascii85_file flushfile } if } def
/cairo_image { image cairo_flush_ascii85_file } def
/cairo_imagemask { imagemask cairo_flush_ascii85_file } def
%%EndProlog
%%BeginSetup
%%EndSetup
%%Page: 1 1
%%BeginPageSetup
%%PageBoundingBox: 0 0 129 143
%%EndPageSetup
q 0 0 129 143 rectclip
1 0 0 -1 0 143 cm q
0 g
127.641 45.801 m 126.566 36.715 123.383 29.605 118.18 24.676 c 113.59 20.324
 107.527 17.934 101.109 17.934 c 100.883 17.934 100.656 17.934 100.434 17.941
 c 95.469 11.547 88.434 8.062 80.348 8.062 c 78.531 8.062 76.68 8.238 74.82
 8.582 c 70.277 3.492 63.922 0.516 57.367 0.516 c 53.395 0.516 49.504 1.625
 46.129 3.684 c 42.508 1.305 38.16 0 33.621 0 c 27.758 0 22.379 2.152 18.473
 6.066 c 14.586 9.957 12.535 15.18 12.543 21.172 c 12.551 28.273 12.566 
29.781 12.586 31.238 c 12.602 32.402 12.613 33.508 12.621 37.539 c 6.93 
40.582 2.996 45.398 1.172 51.594 c -1.641 61.148 0.598 73.457 8.016 89.219
 c 12.898 99.59 18.758 108.664 21.562 112.801 c 22.809 129.352 l 23.363 
136.742 29.602 142.531 37.012 142.531 c 96 142.457 l 103.113 142.449 109.18
 137.121 110.105 130.066 c 112.398 112.617 l 129.883 85.184 129.48 61.375
 127.641 45.801 c h
103.586 110.602 m 101.184 128.895 l 100.84 131.504 98.621 133.449 95.988
 133.453 c 37.02 133.516 l 37.016 133.516 37.016 133.516 37.012 133.516 
c 34.27 133.516 31.988 131.41 31.781 128.672 c 30.461 111.117 l 30.391 110.191
 30.078 109.305 29.555 108.539 c 24.156 100.695 -5.984 54.93 18.43 44.73
 c 20.367 43.922 21.625 42.008 21.621 39.906 c 21.605 27.457 21.559 34.926
 21.543 21.16 c 21.531 12.969 27.496 9 33.621 9 c 37.297 9 41.035 10.43 
43.562 13.238 c 44.379 14.141 45.09 14.512 45.789 14.512 c 46.836 14.512
 47.859 13.676 49.164 12.559 c 51.57 10.508 54.453 9.516 57.367 9.516 c 
61.727 9.516 66.152 11.727 69.16 15.895 c 70.145 17.254 71.719 18 73.352
 18 c 73.812 18 74.273 17.941 74.734 17.82 c 76.285 17.41 78.227 17.062 
80.344 17.062 c 84.98 17.062 90.453 18.734 94.48 25.109 c 95.195 26.242 
96.395 27.227 97.695 27.227 c 97.84 27.227 97.988 27.215 98.137 27.188 c
 99.094 27.02 100.09 26.93 101.109 26.93 c 108.453 26.93 116.91 31.688 118.703
 46.855 c 120.602 62.934 120.152 84.066 104.391 108.43 c 103.969 109.086
 103.688 109.828 103.586 110.602 c h
103.586 110.602 m f
Q Q
showpage
%%Trailer
end
%%EOF
%%EndDocument
EndEPSF
grestore
 3.6146 -8.2442 moveto
magfontemmentaler-16mPBBo /noteheads.d1triangle glyphshow
 0.7973 -8.2442 moveto
0.0514 2.5408 -0.0257 -3.2833 0.1000 draw_round_box
 0.5000 -7.1112 moveto

gsave
currentpoint translate
BeginEPSF
0.02325581 dup scale
0 0 translate
0 0 129 143 rectclip
%%BeginDocument: epsCD/pugno.eps
%!PS-Adobe-3.0 EPSF-3.0
%%Creator: cairo 1.16.0 (https://cairographics.org)
%%CreationDate: Wed Jun 29 09:56:09 2022
%%Pages: 1
%%DocumentData: Clean7Bit
%%LanguageLevel: 2
%%BoundingBox: 0 0 129 143
%%EndComments
%%BeginProlog
50 dict begin
/q { gsave } bind def
/Q { grestore } bind def
/cm { 6 array astore concat } bind def
/w { setlinewidth } bind def
/J { setlinecap } bind def
/j { setlinejoin } bind def
/M { setmiterlimit } bind def
/d { setdash } bind def
/m { moveto } bind def
/l { lineto } bind def
/c { curveto } bind def
/h { closepath } bind def
/re { exch dup neg 3 1 roll 5 3 roll moveto 0 rlineto
      0 exch rlineto 0 rlineto closepath } bind def
/S { stroke } bind def
/f { fill } bind def
/f* { eofill } bind def
/n { newpath } bind def
/W { clip } bind def
/W* { eoclip } bind def
/BT { } bind def
/ET { } bind def
/BDC { mark 3 1 roll /BDC pdfmark } bind def
/EMC { mark /EMC pdfmark } bind def
/cairo_store_point { /cairo_point_y exch def /cairo_point_x exch def } def
/Tj { show currentpoint cairo_store_point } bind def
/TJ {
  {
    dup
    type /stringtype eq
    { show } { -0.001 mul 0 cairo_font_matrix dtransform rmoveto } ifelse
  } forall
  currentpoint cairo_store_point
} bind def
/cairo_selectfont { cairo_font_matrix aload pop pop pop 0 0 6 array astore
    cairo_font exch selectfont cairo_point_x cairo_point_y moveto } bind def
/Tf { pop /cairo_font exch def /cairo_font_matrix where
      { pop cairo_selectfont } if } bind def
/Td { matrix translate cairo_font_matrix matrix concatmatrix dup
      /cairo_font_matrix exch def dup 4 get exch 5 get cairo_store_point
      /cairo_font where { pop cairo_selectfont } if } bind def
/Tm { 2 copy 8 2 roll 6 array astore /cairo_font_matrix exch def
      cairo_store_point /cairo_font where { pop cairo_selectfont } if } bind def
/g { setgray } bind def
/rg { setrgbcolor } bind def
/d1 { setcachedevice } bind def
/cairo_data_source {
  CairoDataIndex CairoData length lt
    { CairoData CairoDataIndex get /CairoDataIndex CairoDataIndex 1 add def }
    { () } ifelse
} def
/cairo_flush_ascii85_file { cairo_ascii85_file status { cairo_ascii85_file flushfile } if } def
/cairo_image { image cairo_flush_ascii85_file } def
/cairo_imagemask { imagemask cairo_flush_ascii85_file } def
%%EndProlog
%%BeginSetup
%%EndSetup
%%Page: 1 1
%%BeginPageSetup
%%PageBoundingBox: 0 0 129 143
%%EndPageSetup
q 0 0 129 143 rectclip
1 0 0 -1 0 143 cm q
0 g
127.641 45.801 m 126.566 36.715 123.383 29.605 118.18 24.676 c 113.59 20.324
 107.527 17.934 101.109 17.934 c 100.883 17.934 100.656 17.934 100.434 17.941
 c 95.469 11.547 88.434 8.062 80.348 8.062 c 78.531 8.062 76.68 8.238 74.82
 8.582 c 70.277 3.492 63.922 0.516 57.367 0.516 c 53.395 0.516 49.504 1.625
 46.129 3.684 c 42.508 1.305 38.16 0 33.621 0 c 27.758 0 22.379 2.152 18.473
 6.066 c 14.586 9.957 12.535 15.18 12.543 21.172 c 12.551 28.273 12.566 
29.781 12.586 31.238 c 12.602 32.402 12.613 33.508 12.621 37.539 c 6.93 
40.582 2.996 45.398 1.172 51.594 c -1.641 61.148 0.598 73.457 8.016 89.219
 c 12.898 99.59 18.758 108.664 21.562 112.801 c 22.809 129.352 l 23.363 
136.742 29.602 142.531 37.012 142.531 c 96 142.457 l 103.113 142.449 109.18
 137.121 110.105 130.066 c 112.398 112.617 l 129.883 85.184 129.48 61.375
 127.641 45.801 c h
103.586 110.602 m 101.184 128.895 l 100.84 131.504 98.621 133.449 95.988
 133.453 c 37.02 133.516 l 37.016 133.516 37.016 133.516 37.012 133.516 
c 34.27 133.516 31.988 131.41 31.781 128.672 c 30.461 111.117 l 30.391 110.191
 30.078 109.305 29.555 108.539 c 24.156 100.695 -5.984 54.93 18.43 44.73
 c 20.367 43.922 21.625 42.008 21.621 39.906 c 21.605 27.457 21.559 34.926
 21.543 21.16 c 21.531 12.969 27.496 9 33.621 9 c 37.297 9 41.035 10.43 
43.562 13.238 c 44.379 14.141 45.09 14.512 45.789 14.512 c 46.836 14.512
 47.859 13.676 49.164 12.559 c 51.57 10.508 54.453 9.516 57.367 9.516 c 
61.727 9.516 66.152 11.727 69.16 15.895 c 70.145 17.254 71.719 18 73.352
 18 c 73.812 18 74.273 17.941 74.734 17.82 c 76.285 17.41 78.227 17.062 
80.344 17.062 c 84.98 17.062 90.453 18.734 94.48 25.109 c 95.195 26.242 
96.395 27.227 97.695 27.227 c 97.84 27.227 97.988 27.215 98.137 27.188 c
 99.094 27.02 100.09 26.93 101.109 26.93 c 108.453 26.93 116.91 31.688 118.703
 46.855 c 120.602 62.934 120.152 84.066 104.391 108.43 c 103.969 109.086
 103.688 109.828 103.586 110.602 c h
103.586 110.602 m f
Q Q
showpage
%%Trailer
end
%%EOF
%%EndDocument
EndEPSF
grestore
 0.5000 -8.2442 moveto
magfontemmentaler-16mPBBo /noteheads.d2triangle glyphshow
stroke grestore
%%Trailer
%%EOF
