%!PS-Adobe-3.0 EPSF-3.0
%%Creator: cairo 1.16.0 (https://cairographics.org)
%%CreationDate: Tue Jun 28 15:55:20 2022
%%Pages: 1
%%DocumentData: Clean7Bit
%%LanguageLevel: 2
%%BoundingBox: 0 0 288 157
%%EndComments
%%BeginProlog
50 dict begin
/q { gsave } bind def
/Q { grestore } bind def
/cm { 6 array astore concat } bind def
/w { setlinewidth } bind def
/J { setlinecap } bind def
/j { setlinejoin } bind def
/M { setmiterlimit } bind def
/d { setdash } bind def
/m { moveto } bind def
/l { lineto } bind def
/c { curveto } bind def
/h { closepath } bind def
/re { exch dup neg 3 1 roll 5 3 roll moveto 0 rlineto
      0 exch rlineto 0 rlineto closepath } bind def
/S { stroke } bind def
/f { fill } bind def
/f* { eofill } bind def
/n { newpath } bind def
/W { clip } bind def
/W* { eoclip } bind def
/BT { } bind def
/ET { } bind def
/BDC { mark 3 1 roll /BDC pdfmark } bind def
/EMC { mark /EMC pdfmark } bind def
/cairo_store_point { /cairo_point_y exch def /cairo_point_x exch def } def
/Tj { show currentpoint cairo_store_point } bind def
/TJ {
  {
    dup
    type /stringtype eq
    { show } { -0.001 mul 0 cairo_font_matrix dtransform rmoveto } ifelse
  } forall
  currentpoint cairo_store_point
} bind def
/cairo_selectfont { cairo_font_matrix aload pop pop pop 0 0 6 array astore
    cairo_font exch selectfont cairo_point_x cairo_point_y moveto } bind def
/Tf { pop /cairo_font exch def /cairo_font_matrix where
      { pop cairo_selectfont } if } bind def
/Td { matrix translate cairo_font_matrix matrix concatmatrix dup
      /cairo_font_matrix exch def dup 4 get exch 5 get cairo_store_point
      /cairo_font where { pop cairo_selectfont } if } bind def
/Tm { 2 copy 8 2 roll 6 array astore /cairo_font_matrix exch def
      cairo_store_point /cairo_font where { pop cairo_selectfont } if } bind def
/g { setgray } bind def
/rg { setrgbcolor } bind def
/d1 { setcachedevice } bind def
/cairo_data_source {
  CairoDataIndex CairoData length lt
    { CairoData CairoDataIndex get /CairoDataIndex CairoDataIndex 1 add def }
    { () } ifelse
} def
/cairo_flush_ascii85_file { cairo_ascii85_file status { cairo_ascii85_file flushfile } if } def
/cairo_image { image cairo_flush_ascii85_file } def
/cairo_imagemask { imagemask cairo_flush_ascii85_file } def
%%EndProlog
%%BeginSetup
%%EndSetup
%%Page: 1 1
%%BeginPageSetup
%%PageBoundingBox: 0 0 288 157
%%EndPageSetup
q 0 0 288 157 rectclip
1 0 0 -1 0 157 cm q
0.00392157 g
67.434 112.363 m 67.434 112.375 l 67.422 112.398 l 67.422 112.41 l 67.434
 112.387 l 67.434 112.375 l 67.445 112.352 l h
67.422 112.41 m 67.422 112.422 l h
67.398 112.516 m 67.422 112.457 l 67.422 112.422 l h
67.387 112.566 m 67.363 112.707 l 67.375 112.648 l 67.398 112.516 l h
67.387 112.566 m f
3 w
2 J
0 j
[] 0.0 d
10 M q 1 0 0 -1 0 0 cm
96.305 -130.121 m 96.328 -130.516 l 96.363 -130.883 l 96.375 -131.25 l 
96.387 -131.594 l 96.375 -131.949 l 96.363 -132.281 l 96.305 -132.934 l 
96.18 -133.562 l 96.098 -133.871 l 96.023 -134.156 l 95.914 -134.453 l 95.805
 -134.727 l 95.684 -134.996 l 95.559 -135.246 l 95.242 -135.758 l 95.074
 -136.008 l 94.902 -136.23 l 94.695 -136.469 l 94.5 -136.684 l 94.281 -136.895
 l 94.062 -137.086 l 93.805 -137.289 l 93.562 -137.465 l 93.027 -137.809
 l 92.441 -138.129 l 92.125 -138.285 l 91.82 -138.414 l 89.164 -138.594 
l 88.691 -138.484 l 88.191 -138.355 l 87.715 -138.211 l 87.508 -138.141 
l 87.34 -138.059 l 87.031 -137.914 l 86.926 -137.844 l 86.84 -137.762 l 
86.559 -137.57 l 85.875 -136.672 l 85.633 -136.066 l 85.379 -135.402 l 85.266
 -135.07 l 85.172 -134.746 l 85.074 -134.453 l 85 -134.168 l 84.914 -133.906
 l 84.84 -133.656 l 84.77 -133.434 l 84.719 -133.219 l 84.645 -133.027 l
 84.598 -132.852 l 84.551 -132.695 l 84.512 -132.555 l 84.465 -132.434 l
 84.426 -132.328 l 84.402 -132.246 l 84.391 -132.176 l 84.172 -131.559 l
 84 -130.93 l 83.855 -130.289 l 83.77 -129.637 l 83.648 -129.613 l 83.609
 -129.469 l 83.574 -129.289 l 83.527 -129.102 l 83.488 -128.887 l 83.43 
-128.676 l 83.367 -128.438 l 83.293 -128.188 l 83.234 -127.902 l 83.137 
-127.633 l 83.051 -127.324 l 82.953 -127.016 l 82.855 -126.672 l 82.734 
-126.324 l 82.625 -125.957 l 82.488 -125.578 l 82.367 -125.176 l 82.09 -124.391
 l 81.82 -123.621 l 81.551 -122.898 l 81.297 -122.184 l 80.492 -119.352 
l 80.504 -118.98 l 80.43 -118.688 l 80.359 -118.316 l 80.309 -118.117 l 
80.273 -117.891 l 80.176 -117.395 l 80.055 -116.859 l 79.98 -116.574 l 79.922
 -116.254 l 79.773 -115.59 l 79.629 -114.855 l 79.531 -114.484 l 79.445 
-114.082 l 79.25 -113.238 l 79.141 -112.812 l 79.043 -112.352 l 78.934 -111.887
 l 78.836 -111.391 l 78.715 -110.902 l 78.605 -110.383 l 78.359 -109.301
 l 78.227 -108.758 l 78.105 -108.176 l 77.836 -106.977 l 77.266 -104.578
 l 76.719 -102.23 l 76.449 -101.078 l 76.18 -99.941 l 75.656 -97.688 l 75.207
 -96.145 l 74.719 -94.602 l 74.449 -93.844 l 74.184 -93.074 l 73.891 -92.312
 l 73.742 -91.934 l 73.672 -91.742 l 73.637 -91.648 l 73.609 -91.543 l 72.988
 -90.273 l 72.832 -90.035 l 72.707 -89.848 l 72.648 -89.773 l 72.598 -89.715
 l 72.551 -89.668 l 72.527 -89.633 l 72.406 -89.586 l 72.367 -89.586 l 72.297
 -89.551 l 72.184 -89.551 l 72.16 -89.539 l 72.051 -89.539 l 72.027 -89.527
 l 71.867 -89.551 l 71.723 -89.574 l 71.551 -89.621 l 71.383 -89.68 l 71.262
 -89.738 l 71.148 -89.785 l 71.027 -89.859 l 70.992 -89.883 l 70.969 -89.895
 l 70.918 -89.918 l 70.734 -90.035 l 69.832 -91.957 l 69.324 -94.211 l 68.871
 -96.441 l 68.469 -98.672 l 68.129 -100.867 l 67.836 -103.062 l 67.605 -105.23
 l 67.422 -107.391 l 67.301 -109.527 l 67.387 -109.672 l 67.141 -115.398
 l 67.008 -117.086 l 66.852 -118.637 l 66.68 -120.18 l 66.496 -121.723 l
 66.289 -123.254 l 66.059 -124.797 l 65.805 -126.324 l 65.535 -127.855 l
 65.254 -129.375 l 65.23 -129.41 l 65.23 -129.445 l 65.219 -129.469 l 65.219
 -129.578 l 65.191 -129.672 l 65.18 -129.695 l 65.18 -129.777 l 65.156 -129.906
 l 65.156 -130.051 l 65.098 -130.586 l 65.047 -131.059 l 65.023 -131.273
 l 65 -131.496 l 64.949 -131.973 l 64.926 -132.113 l 64.914 -132.188 l 64.914
 -132.246 l 64.891 -132.52 l 64.84 -133.09 l 64.766 -133.73 l 64.73 -134.059
 l 64.707 -134.406 l 64.656 -134.773 l 64.633 -134.961 l 64.621 -135.059
 l 64.621 -135.141 l 64.547 -135.922 l 64.465 -136.648 l 64.402 -137.336
 l 64.34 -137.988 l 64.293 -138.605 l 64.242 -139.211 l 64.207 -139.766 
l 64.172 -140.301 l 64.156 -140.801 l 64.074 -142.141 l 63.977 -143.469 
l 63.867 -144.797 l 63.73 -146.113 l 63.609 -146.777 l 63.465 -147.43 l 
63.367 -147.762 l 63.258 -148.07 l 63.012 -148.688 l 62.828 -149.055 l 62.637
 -149.398 l 62.43 -149.73 l 62.223 -150.027 l 61.977 -150.336 l 61.734 -150.609
 l 61.477 -150.871 l 61.223 -151.109 l 60.93 -151.355 l 60.637 -151.57 l
 60.332 -151.773 l 60.016 -151.949 l 59.676 -152.129 l 59.324 -152.27 l 
58.957 -152.414 l 58.594 -152.52 l 58.203 -152.625 l 57.824 -152.688 l 57.445
 -152.711 l 57.082 -152.688 l 56.715 -152.652 l 56.363 -152.555 l 56.012
 -152.438 l 55.668 -152.27 l 55.121 -151.984 l 54.633 -151.664 l 54.184 
-151.32 l 53.781 -150.953 l 53.402 -150.562 l 53.074 -150.148 l 52.781 -149.707
 l 52.539 -149.223 l 52.32 -148.734 l 52.223 -148.484 l 52.148 -148.215 
l 52.016 -147.68 l 51.941 -147.098 l 51.879 -146.516 l 51.879 -145.578 l
 51.906 -145.246 l 51.988 -144.57 l 51.844 -142.746 l 51.734 -140.918 l 
51.637 -139.113 l 51.574 -137.324 l 51.539 -136.445 l 51.551 -135.555 l 
51.59 -134.664 l 51.648 -133.766 l 51.699 -132.828 l 51.746 -131.844 l 51.797
 -130.82 l 51.867 -129.742 l 51.879 -129.223 l 51.906 -128.711 l 51.93 -128.211
 l 51.953 -127.727 l 51.965 -127.273 l 51.988 -126.824 l 52.004 -126.398
 l 52.027 -125.98 l 52.027 -125.602 l 52.039 -125.223 l 52.039 -124.867 
l 52.062 -124.523 l 52.062 -123.477 l 52.074 -123.336 l 52.074 -123.121 
l 52.086 -122.957 l 52.113 -122.73 l 52.137 -122.492 l 52.16 -122.195 l 
52.195 -121.879 l 52.246 -121.496 l 52.27 -121.129 l 52.281 -120.965 l 52.305
 -120.797 l 52.332 -120.5 l 52.332 -120.441 l 52.344 -120.371 l 52.367 -120.227
 l 52.367 -120.121 l 52.379 -120.004 l 52.402 -119.812 l 52.402 -119.598
 l 52.414 -119.527 l 52.414 -119.492 l 52.344 -118.496 l 52.32 -117.488 
l 52.344 -116.48 l 52.43 -115.461 l 52.453 -115.043 l 52.5 -114.582 l 52.523
 -114.105 l 52.574 -113.598 l 52.598 -113.074 l 52.648 -112.516 l 52.684
 -111.934 l 52.734 -111.32 l 52.758 -110.691 l 52.805 -110.035 l 52.844 
-109.359 l 52.891 -108.637 l 52.914 -107.914 l 52.965 -107.145 l 53.012 
-106.359 l 53.062 -105.539 l 53.086 -104.734 l 53.137 -103.941 l 53.16 -103.168
 l 53.207 -102.398 l 53.23 -101.66 l 53.242 -101.305 l 53.27 -100.938 l 
53.293 -100.238 l 53.293 -99.988 l 53.305 -99.895 l 53.328 -99.539 l 53.344
 -99.016 l 53.344 -98.625 l 53.355 -98.48 l 53.367 -97.438 l 53.344 -96.93
 l 53.328 -96.406 l 53.293 -95.387 l 53.195 -94.391 l 53.086 -93.367 l 52.941
 -92.348 l 52.77 -91.305 l 52.672 -90.996 l 51.781 -87.555 l 50.723 -86.5
 l 50.59 -86.488 l 50.504 -86.5 l 50.441 -86.535 l 50.406 -86.582 l 50.309
 -86.855 l 50.223 -87.141 l 50.027 -87.781 l 49.906 -88.137 l 49.809 -88.504
 l 49.688 -88.898 l 49.578 -89.301 l 49.504 -89.527 l 49.445 -89.738 l 49.32
 -90.203 l 49.176 -90.688 l 49.055 -91.176 l 48.906 -91.695 l 48.762 -92.23
 l 48.613 -92.789 l 48.469 -93.367 l 47.348 -97.699 l 47.227 -97.758 l 46.875
 -99.062 l 46.547 -100.285 l 46.227 -101.461 l 45.949 -102.562 l 45.668 
-103.621 l 45.41 -104.594 l 45.168 -105.52 l 44.949 -106.371 l 44.73 -107.145
 l 44.535 -107.855 l 44.34 -108.531 l 44.172 -109.16 l 44 -109.766 l 43.84
 -110.309 l 43.695 -110.82 l 43.562 -111.281 l 43.426 -111.723 l 43.305 
-112.113 l 43.195 -112.469 l 43.098 -112.766 l 43 -113.051 l 42.914 -113.277
 l 42.844 -113.465 l 42.781 -113.598 l 42.648 -113.68 l 42.465 -115.164 
l 42.258 -116.609 l 42.004 -118.059 l 41.723 -119.469 l 41.391 -120.879 
l 41.039 -122.27 l 40.637 -123.656 l 40.211 -125.008 l 39.723 -126.371 l
 39.211 -127.703 l 38.664 -129.031 l 38.09 -130.324 l 37.469 -131.617 l 
36.812 -132.887 l 36.117 -134.156 l 35.398 -135.391 l 35.168 -135.688 l 
34.926 -135.934 l 34.656 -136.16 l 34.375 -136.363 l 34.07 -136.539 l 33.742
 -136.695 l 33.402 -136.824 l 33.051 -136.934 l 32.574 -137.051 l 32.121
 -137.121 l 31.672 -137.156 l 31.258 -137.156 l 30.832 -137.133 l 30.441
 -137.062 l 30.051 -136.969 l 29.688 -136.824 l 29.309 -136.672 l 28.969
 -136.469 l 28.629 -136.242 l 28.309 -135.973 l 27.992 -135.676 l 27.699
 -135.344 l 27.41 -134.977 l 27.152 -134.559 l 26.91 -134.074 l 26.836 -133.738
 l 26.777 -133.348 l 26.727 -132.934 l 26.691 -132.461 l 26.652 -131.961
 l 26.641 -131.402 l 26.629 -130.809 l 26.641 -130.172 l 26.641 -129.539
 l 26.664 -128.926 l 26.691 -128.355 l 26.727 -127.797 l 27.738 -121.047
 l 27.848 -120.977 l 28.02 -120.051 l 28.188 -119.148 l 28.262 -118.723 
l 28.297 -118.508 l 28.348 -118.281 l 28.422 -117.867 l 28.434 -117.773 
l 28.457 -117.664 l 28.504 -117.453 l 28.531 -117.262 l 28.543 -117.168 
l 28.566 -117.062 l 28.641 -116.668 l 28.762 -115.922 l 28.809 -115.566 
l 28.871 -115.211 l 28.922 -114.867 l 28.945 -114.699 l 28.945 -114.664 
l 28.98 -114.523 l 29.09 -113.668 l 29.188 -112.824 l 29.223 -112.422 l 
29.273 -112.008 l 29.348 -111.188 l 29.395 -110.406 l 29.406 -110.023 l 
29.43 -109.633 l 29.453 -108.887 l 29.453 -108.52 l 29.469 -108.141 l 30.016
 -104.426 l 30.09 -103.93 l 30.16 -103.441 l 30.234 -102.977 l 30.234 -102.93
 l 30.246 -102.871 l 30.273 -102.754 l 30.32 -102.516 l 30.395 -102.078 
l 30.469 -101.648 l 30.539 -101.246 l 30.574 -101.059 l 30.625 -100.855 
l 30.648 -100.676 l 30.688 -100.488 l 30.758 -100.133 l 30.906 -99.469 l
 30.953 -99.16 l 31.027 -98.863 l 31.051 -98.73 l 31.086 -98.59 l 31.16 
-98.316 l 31.223 -97.984 l 31.309 -97.605 l 31.391 -97.164 l 31.488 -96.668
 l 31.586 -96.133 l 31.695 -95.539 l 31.805 -94.887 l 31.941 -94.176 l 32.039
 -93.547 l 32.086 -93.25 l 32.148 -92.941 l 32.242 -92.371 l 32.293 -92.113
 l 32.316 -91.98 l 32.355 -91.84 l 32.453 -91.352 l 32.551 -90.891 l 32.648
 -90.465 l 32.695 -90.273 l 32.73 -90.133 l 32.758 -90.07 l 32.781 -89.836
 l 32.805 -89.609 l 32.828 -89.418 l 32.855 -89.254 l 32.855 -89.133 l 32.879
 -89.027 l 32.879 -88.957 l 32.902 -88.898 l 32.926 -88.789 l 32.949 -88.66
 l 32.977 -88.504 l 33.012 -88.328 l 33.035 -88.148 l 33.062 -87.926 l 33.133
 -87.438 l 33.184 -86.938 l 33.23 -86.477 l 33.574 -85.352 l 33.891 -84.199
 l 34.156 -83.023 l 34.402 -81.805 l 34.594 -80.582 l 34.754 -79.324 l 34.875
 -78.055 l 34.961 -76.738 l 34.789 -76.547 l 34.254 -76.5 l 33.781 -76.641
 l 33.305 -76.949 l 32.855 -77.246 l 31.965 -77.887 l 31.527 -78.23 l 31.113
 -78.574 l 30.699 -78.945 l 30.309 -79.301 l 29.516 -80.082 l 28.773 -80.891
 l 28.406 -81.316 l 28.066 -81.742 l 27.398 -82.633 l 26.812 -83.07 l 26.266
 -83.535 l 25.738 -84.008 l 25.238 -84.496 l 24.742 -85.02 l 24.289 -85.551
 l 23.84 -86.098 l 23.438 -86.656 l 20.465 -90.332 l 20.465 -90.496 l 18.832
 -92.41 l 18.676 -92.445 l 17.324 -94.129 l 15.984 -95.824 l 14.645 -97.547
 l 13.328 -99.277 l 13.098 -99.609 l 12.891 -99.93 l 12.684 -100.262 l 12.512
 -100.594 l 12.391 -100.762 l 12.293 -100.926 l 12.195 -101.105 l 12.121
 -101.27 l 11.914 -101.734 l 11.707 -102.148 l 11.477 -102.562 l 11.246 
-102.941 l 10.988 -103.312 l 10.723 -103.656 l 10.43 -103.988 l 10.137 -104.285
 l 9.809 -104.578 l 9.48 -104.844 l 9.125 -105.09 l 8.773 -105.316 l 8.383
 -105.539 l 7.992 -105.719 l 7.578 -105.898 l 7.164 -106.027 l 6.703 -106.145
 l 6.262 -106.195 l 5.824 -106.184 l 5.387 -106.098 l 4.996 -106.004 l 4.645
 -105.871 l 4.289 -105.719 l 3.973 -105.52 l 3.656 -105.305 l 3.375 -105.055
 l 3.098 -104.781 l 2.852 -104.473 l 2.438 -103.895 l 2.109 -103.266 l 1.879
 -102.719 l 1.719 -102.137 l 1.574 -101.473 l 1.523 -101.141 l 1.512 -100.797
 l 1.5 -100.133 l 1.523 -99.801 l 1.574 -99.453 l 1.684 -98.789 l 1.879 
-98.125 l 1.988 -97.805 l 2.121 -97.473 l 2.449 -96.809 l 3.691 -94.484 
l 4.305 -93.348 l 4.938 -92.219 l 6.18 -90.012 l 6.324 -89.75 l 6.398 -89.621
 l 6.48 -89.477 l 6.801 -88.934 l 7.434 -87.863 l 8.043 -86.82 l 8.676 -85.789
 l 9.918 -83.773 l 10.527 -82.789 l 11.16 -81.812 l 11.77 -80.852 l 12.402
 -79.902 l 12.586 -79.523 l 12.977 -78.969 l 13.402 -78.41 l 13.828 -77.875
 l 14.305 -77.367 l 14.777 -76.879 l 15.289 -76.418 l 15.812 -75.977 l 16.371
 -75.551 l 16.508 -75.266 l 16.664 -74.98 l 16.848 -74.719 l 17.078 -74.461
 l 17.434 -74.078 l 17.785 -73.676 l 18.469 -72.836 l 19.078 -71.969 l 19.66
 -71.055 l 20.176 -70.117 l 20.637 -69.133 l 21.051 -68.125 l 21.234 -67.602
 l 21.414 -67.059 l 21.621 -66.43 l 21.672 -66.273 l 21.695 -66.203 l 21.695
 -66.191 l 21.707 -66.168 l 21.734 -66.121 l 21.781 -65.977 l 21.844 -65.836
 l 21.855 -65.785 l 21.879 -65.727 l 21.93 -65.621 l 22.023 -65.43 l 22.109
 -65.266 l 22.148 -65.195 l 22.195 -65.109 l 22.27 -64.969 l 22.293 -64.91
 l 22.328 -64.84 l 22.414 -64.578 l 22.465 -64.316 l 22.477 -64.258 l 22.5
 -64.199 l 22.535 -64.09 l 22.535 -64.055 l 22.551 -64.031 l 22.574 -63.973
 l 22.621 -63.879 l 22.793 -63.559 l 22.988 -63.273 l 23.184 -63.023 l 23.414
 -62.809 l 23.449 -62.559 l 23.5 -62.266 l 23.547 -61.941 l 23.621 -61.574
 l 23.684 -61.184 l 23.766 -60.758 l 23.852 -60.293 l 23.949 -59.797 l 24.047
 -59.227 l 24.082 -58.988 l 24.133 -58.766 l 24.168 -58.551 l 24.219 -58.348
 l 24.242 -58.172 l 24.289 -58.004 l 24.316 -57.852 l 24.352 -57.707 l 24.352
 -57.625 l 24.363 -57.602 l 24.387 -57.496 l 24.387 -57.461 l 24.402 -57.41
 l 24.426 -57.328 l 24.449 -57.234 l 24.449 -57.211 l 24.461 -57.199 l 24.777
 -55.289 l 25.777 -50.363 l 25.898 -49.688 l 25.922 -49.535 l 25.961 -49.367
 l 26.031 -49.035 l 26.082 -48.727 l 26.105 -48.574 l 26.141 -48.406 l 26.266
 -47.777 l 26.363 -47.184 l 26.484 -46.605 l 26.578 -46.047 l 26.629 -45.773
 l 26.691 -45.488 l 26.703 -45.371 l 26.727 -45.238 l 26.777 -44.98 l 26.871
 -44.48 l 26.945 -43.992 l 26.945 -43.945 l 26.957 -43.887 l 26.984 -43.77
 l 27.031 -43.531 l 27.105 -43.094 l 27.18 -42.664 l 27.238 -42.262 l 27.312
 -41.871 l 27.41 -41.777 l 27.812 -38.977 l 27.895 -38.883 l 27.895 -38.836
 l 27.906 -38.773 l 27.934 -38.656 l 27.98 -38.418 l 28.078 -37.945 l 28.273
 -37.008 l 28.664 -35.18 l 28.832 -34.289 l 29.027 -33.41 l 29.211 -32.559
 l 29.406 -31.703 l 29.453 -31.441 l 29.527 -31.172 l 29.613 -30.922 l 29.723
 -30.66 l 29.832 -30.422 l 29.969 -30.176 l 30.102 -29.938 l 30.262 -29.688
 l 30.648 -29.047 l 31.016 -28.406 l 31.309 -27.766 l 31.441 -27.445 l 31.562
 -27.113 l 31.758 -26.473 l 31.902 -25.82 l 32 -25.18 l 32.051 -24.516 l
 32.027 -23.875 l 32 -23.543 l 31.965 -23.211 l 31.844 -22.57 l 31.77 -22.238
 l 31.684 -21.906 l 31.465 -21.266 l 31.195 -20.602 l 31.039 -20.27 l 30.867
 -19.934 l 30.504 -19.27 l 29.844 -17.754 l 29.66 -17.359 l 29.492 -16.98
 l 29.332 -16.637 l 29.199 -16.305 l 29.066 -16.02 l 28.945 -15.746 l 28.832
 -15.523 l 28.738 -15.297 l 28.652 -15.082 l 28.629 -14.848 l 28.664 -14.609
 l 28.773 -14.359 l 28.922 -14.109 l 29.137 -13.84 l 29.418 -13.566 l 29.773
 -13.281 l 30.16 -12.996 l 30.625 -12.699 l 31.137 -12.402 l 31.723 -12.082
 l 32.355 -11.773 l 33.051 -11.441 l 33.805 -11.109 l 34.633 -10.766 l 35.352
 -10.48 l 36.105 -10.195 l 36.887 -9.91 l 37.715 -9.613 l 38.555 -9.328 
l 39.445 -9.031 l 40.355 -8.738 l 41.32 -8.43 l 42.293 -8.133 l 43.316 -7.824
 l 44.363 -7.516 l 45.449 -7.207 l 46.559 -6.898 l 47.703 -6.59 l 48.883
 -6.281 l 50.102 -5.949 l 52.195 -5.426 l 52.707 -5.309 l 52.828 -5.285 
l 52.965 -5.246 l 53.23 -5.18 l 54.281 -4.914 l 55.305 -4.68 l 56.324 -4.43
 l 56.57 -4.383 l 56.691 -4.359 l 56.824 -4.324 l 57.336 -4.203 l 58.348
 -3.969 l 58.836 -3.871 l 59.199 -3.801 l 59.336 -3.766 l 60.32 -3.551 l
 61.297 -3.352 l 62.281 -3.137 l 62.391 -3.125 l 62.512 -3.102 l 62.758 
-3.055 l 63.242 -2.961 l 64.207 -2.77 l 65.156 -2.59 l 66.105 -2.402 l 66.922
 -2.258 l 67.312 -2.199 l 67.703 -2.129 l 68.434 -2.012 l 69.141 -1.891 
l 69.457 -1.855 l 69.785 -1.809 l 69.934 -1.797 l 70.09 -1.773 l 70.395 
-1.727 l 70.953 -1.652 l 71.48 -1.582 l 71.723 -1.57 l 71.953 -1.547 l 72.172
 -1.535 l 72.379 -1.512 l 72.562 -1.512 l 72.734 -1.5 l 73.039 -1.5 l 73.16
 -1.523 l 73.27 -1.523 l 73.441 -1.547 l 73.5 -1.57 l 73.551 -1.594 l 73.562
 -1.617 l 73.586 -1.629 l 73.609 -1.652 l 73.684 -1.926 l 73.793 -2.164 
l 73.891 -2.379 l 74.012 -2.602 l 74.133 -2.852 l 74.281 -3.102 l 74.586
 -3.672 l 74.742 -3.98 l 74.926 -4.289 l 75.098 -4.633 l 75.289 -4.988 l
 75.484 -5.355 l 75.703 -5.734 l 75.91 -6.141 l 76.145 -6.555 l 76.375 -6.98
 l 76.633 -7.422 l 78.445 -10.742 l 78.887 -11.004 l 79.105 -11.133 l 79.336
 -11.25 l 80.211 -11.762 l 81.078 -12.285 l 81.492 -12.559 l 81.918 -12.816
 l 82.246 -12.961 l 82.406 -13.031 l 82.574 -13.09 l 82.723 -13.172 l 82.879
 -13.246 l 83.184 -13.387 l 83.32 -13.48 l 83.465 -13.566 l 83.746 -13.73
 l 84.012 -13.91 l 84.281 -14.086 l 84.328 -14.145 l 84.391 -14.195 l 84.512
 -14.289 l 84.562 -14.348 l 84.621 -14.395 l 84.742 -14.488 l 84.949 -14.703
 l 85.172 -14.918 l 85.352 -15.156 l 85.535 -15.391 l 85.707 -15.641 l 85.875
 -15.891 l 86.68 -16.66 l 88.836 -18.738 l 90.832 -20.871 l 92.527 -22.512
 l 97.277 -27.777 l 97.766 -28.266 l 98.836 -29.215 l 99.25 -29.578 l 100.188
 -30.492 l 101.152 -31.371 l 102.113 -32.238 l 103.102 -33.055 l 103.211
 -33.078 l 106.84 -36.734 l 108.664 -39.938 l 109.75 -43.367 l 110.117 -44.254
 l 110.641 -45.715 l 110.922 -46.426 l 111.578 -47.801 l 111.941 -48.469
 l 112.32 -49.133 l 112.723 -49.773 l 113.562 -51.039 l 114.016 -51.656 
l 114.488 -52.25 l 114.977 -52.844 l 116.023 -53.984 l 116.598 -54.527 l
 116.609 -54.578 l 116.668 -54.648 l 116.754 -54.777 l 116.816 -54.859 l
 116.902 -54.945 l 117.059 -55.184 l 117.156 -55.312 l 117.277 -55.441 l
 117.387 -55.609 l 117.523 -55.773 l 117.656 -55.953 l 117.812 -56.129 l
 118.117 -56.57 l 118.266 -56.781 l 118.422 -56.973 l 118.559 -57.176 l 
118.691 -57.352 l 118.945 -57.695 l 119.152 -58.016 l 119.348 -58.312 l 
119.508 -58.586 l 119.664 -58.812 l S Q
q 1 0 0 -1 0 0 cm
119.664 -58.812 m 119.836 -59.203 l 120.227 -59.938 l 120.457 -60.281 l
 120.676 -60.625 l 120.934 -60.949 l 121.469 -61.551 l 122.672 -62.82 l 
123.285 -63.449 l 123.918 -64.055 l 125.172 -65.254 l 126.477 -66.426 l 
127.777 -67.578 l 129.129 -68.695 l 130.508 -69.773 l 131.906 -70.816 l 
132.039 -71.043 l 132.152 -71.219 l 132.223 -71.375 l 132.25 -71.434 l 132.285
 -71.469 l 132.332 -71.672 l 132.383 -71.863 l 132.418 -72.051 l 132.441
 -72.242 l 132.441 -72.703 l 132.395 -73.141 l 132.348 -73.367 l 132.285
 -73.582 l 132.211 -73.793 l 132.125 -73.984 l 131.957 -74.293 l 131.773
 -74.566 l 131.578 -74.828 l 131.371 -75.051 l 131.141 -75.277 l 130.895
 -75.457 l 130.641 -75.621 l 130.371 -75.754 l 129.375 -76.191 l 128.398
 -76.559 l 127.398 -76.867 l 126.426 -77.105 l 125.426 -77.293 l 124.93 
-77.367 l 124.441 -77.402 l 123.441 -77.461 l 122.465 -77.449 l 121.469 
-77.391 l 120.469 -77.258 l 119.473 -77.082 l 118.973 -76.961 l 118.484 
-76.82 l 117.484 -76.512 l 116.488 -76.133 l 115.488 -75.707 l 114.488 -75.195
 l 114.098 -75.004 l 113.695 -74.793 l 113.27 -74.578 l 112.832 -74.328 
l 112.383 -74.102 l 112.164 -73.996 l 111.969 -73.879 l 111.59 -73.664 l
 111.25 -73.453 l 110.918 -73.273 l 110.762 -73.188 l 110.629 -73.094 l 
110.371 -72.93 l 110.25 -72.855 l 110.152 -72.773 l 109.082 -71.602 l 108.18
 -69.938 l 107.18 -66.867 l 106.875 -66.344 l 106.789 -66.227 l 106.73 -66.121
 l 106.668 -66.023 l 106.633 -65.941 l 106.598 -65.883 l 106.57 -65.836 
l 106.559 -65.801 l 106.559 -65.777 l 105.875 -64.754 l 105.207 -63.973 
l 104.207 -63.012 l 103.891 -62.691 l 103.527 -62.348 l 103.113 -61.977 
l 102.648 -61.562 l 102.395 -61.363 l 102.125 -61.148 l 101.566 -60.688 
l 100.957 -60.223 l 100.297 -59.715 l 99.422 -59.086 l 98.52 -58.445 l 97.766
 -57.934 l 95.789 -57.875 l 95.121 -58.457 l 94.5 -59.047 l 93.879 -59.664
 l 93.309 -60.293 l 92.734 -60.949 l 92.211 -61.625 l 91.688 -62.324 l 91.211
 -63.035 l 91.188 -63.082 l 91.152 -63.129 l 91.113 -63.176 l 91.078 -63.223
 l 91.055 -63.262 l 91.016 -63.309 l 90.992 -63.344 l 90.945 -63.402 l 90.906
 -63.449 l 90.859 -63.508 l 90.82 -63.559 l 90.613 -63.832 l 90.457 -64.043
 l 90.383 -64.137 l 90.336 -64.211 l 90.285 -64.281 l 90.262 -64.328 l 89.859
 -64.969 l 89.52 -65.609 l 89.215 -66.273 l 89.078 -66.617 l 88.973 -66.949
 l 88.738 -67.648 l 88.566 -68.363 l 88.434 -69.098 l 88.348 -69.832 l 88.215
 -71.352 l 88.129 -72.855 l 88.07 -74.375 l 88.059 -75.871 l 88.07 -77.391
 l 88.129 -78.883 l 88.215 -80.379 l 88.348 -81.875 l 88.496 -83.379 l 88.691
 -84.875 l 88.922 -86.371 l 89.203 -87.863 l 89.504 -89.359 l 89.848 -90.855
 l 90.227 -92.348 l 90.652 -93.832 l 94.781 -120.062 l 95.207 -122.578 l
 95.609 -125.09 l 95.977 -127.605 l 96.305 -130.121 l S Q
220.398 114.316 m 220.398 114.305 l 220.387 114.293 l h
220.398 114.328 m 220.41 114.352 l 220.41 114.34 l 220.398 114.316 l h
220.41 114.363 m 220.41 114.352 l h
220.41 114.398 m 220.434 114.457 l 220.41 114.363 l h
220.434 114.457 m 220.461 114.59 l 220.473 114.648 l 220.445 114.504 l 
h
220.434 114.457 m f
q
0 0 288 157 re W n
[ 1 0 0 1 0 0 ] concat
  q
0.00392157 g
3 w
2 J
0 j
[] 0.0 d
10 M q 1 0 0 -1 0 0 cm
168.168 -60.754 m 168.324 -60.527 l 168.484 -60.254 l 168.68 -59.957 l 
168.887 -59.637 l 169.141 -59.293 l 169.273 -59.117 l 169.41 -58.914 l 169.566
 -58.723 l 169.715 -58.512 l 170.02 -58.07 l 170.176 -57.895 l 170.312 -57.715
 l 170.445 -57.551 l 170.555 -57.383 l 170.676 -57.254 l 170.773 -57.121
 l 170.934 -56.887 l 171.016 -56.801 l 171.078 -56.719 l 171.164 -56.59 
l 171.223 -56.516 l 171.234 -56.469 l 171.809 -55.926 l 172.855 -54.785 
l 173.344 -54.191 l 173.82 -53.598 l 174.27 -52.98 l 175.109 -51.711 l 175.512
 -51.074 l 175.891 -50.406 l 176.254 -49.742 l 176.582 -49.055 l 176.914
 -48.367 l 177.191 -47.656 l 177.715 -46.195 l 178.082 -45.305 l 178.992
 -42.434 l 179.105 -42.062 179.262 -41.707 179.453 -41.371 c 180.633 -39.305
 l 180.871 -38.887 181.164 -38.504 181.504 -38.16 c 184.621 -35.02 l 184.73
 -34.996 l 185.719 -34.18 l 186.684 -33.312 l 187.645 -32.434 l 188.582 
-31.52 l 188.996 -31.152 l 190.066 -30.203 l 190.555 -29.719 l 195.18 -24.59
 l 195.266 -24.496 195.352 -24.406 195.438 -24.32 c 197 -22.812 l 198.996
 -20.68 l 201.152 -18.602 l 201.957 -17.832 l 202.125 -17.582 l 202.297 
-17.332 l 202.48 -17.094 l 202.664 -16.859 l 202.883 -16.645 l 203.09 -16.43
 l 203.211 -16.336 l 203.27 -16.289 l 203.32 -16.23 l 203.441 -16.133 l 
203.504 -16.086 l 203.551 -16.027 l 203.82 -15.852 l 204.086 -15.672 l 204.367
 -15.504 l 204.516 -15.422 l 204.648 -15.328 l 204.953 -15.184 l 205.109
 -15.113 l 205.258 -15.031 l 205.43 -14.973 l 205.586 -14.898 l 205.914 
-14.758 l 206.34 -14.496 l 206.754 -14.223 l 207.621 -13.703 l 208.496 -13.191
 l 208.73 -13.074 l 208.949 -12.941 l 209.387 -12.684 l 211.199 -9.359 l
 211.457 -8.922 l 211.688 -8.496 l 211.918 -8.078 l 212.125 -7.676 l 212.348
 -7.297 l 212.539 -6.93 l 212.734 -6.574 l 212.906 -6.227 l 213.09 -5.922
 l 213.246 -5.609 l 213.551 -5.043 l 213.699 -4.793 l 213.82 -4.543 l 213.941
 -4.316 l 214.039 -4.105 l 214.148 -3.867 l 214.223 -3.594 l 214.246 -3.57
 l 214.27 -3.559 l 214.281 -3.535 l 214.332 -3.512 l 214.395 -3.488 l 214.562
 -3.465 l 214.672 -3.465 l 214.793 -3.441 l 215.098 -3.441 l 215.27 -3.453
 l 215.453 -3.453 l 215.66 -3.477 l 215.879 -3.488 l 216.109 -3.512 l 216.355
 -3.523 l 216.875 -3.594 l 217.438 -3.668 l 217.742 -3.715 l 217.898 -3.738
 l 218.047 -3.75 l 218.375 -3.797 l 218.691 -3.832 l 219.398 -3.953 l 220.129
 -4.07 l 220.52 -4.141 l 220.91 -4.199 l 221.727 -4.344 l 222.676 -4.531
 l 223.625 -4.711 l 224.586 -4.898 l 225.074 -4.996 l 225.32 -5.043 l 225.441
 -5.066 l 225.551 -5.078 l 226.535 -5.293 l 227.512 -5.492 l 228.496 -5.707
 l 228.633 -5.742 l 228.996 -5.812 l 229.484 -5.91 l 230.496 -6.145 l 231.008
 -6.266 l 231.141 -6.301 l 231.262 -6.324 l 231.508 -6.371 l 232.527 -6.621
 l 233.555 -6.855 l 234.602 -7.117 l 234.867 -7.188 l 235.004 -7.227 l 235.125
 -7.25 l 235.637 -7.367 l 237.73 -7.891 l 238.949 -8.223 l 240.129 -8.531
 l 241.273 -8.84 l 242.383 -9.148 l 243.469 -9.457 l 244.516 -9.766 l 245.539
 -10.074 l 246.516 -10.371 l 247.477 -10.676 l 248.391 -10.973 l 249.277
 -11.27 l 250.117 -11.555 l 250.945 -11.852 l 251.727 -12.137 l 252.48 -12.422
 l 253.199 -12.707 l 254.027 -13.051 l 254.785 -13.383 l 255.477 -13.715
 l 256.109 -14.023 l 256.695 -14.344 l 257.207 -14.641 l 257.672 -14.938
 l 258.062 -15.223 l 258.414 -15.504 l 258.695 -15.777 l 258.914 -16.051
 l 259.059 -16.301 l 259.168 -16.551 l 259.203 -16.789 l 259.184 -17.023
 l 259.098 -17.238 l 258.996 -17.465 l 258.891 -17.688 l 258.766 -17.961
 l 258.633 -18.246 l 258.5 -18.578 l 258.34 -18.922 l 258.168 -19.301 l 
257.988 -19.691 l 257.328 -21.211 l 256.965 -21.875 l 256.793 -22.207 l 
256.637 -22.543 l 256.367 -23.207 l 256.148 -23.844 l 256.062 -24.176 l 
255.988 -24.512 l 255.867 -25.148 l 255.832 -25.48 l 255.809 -25.812 l 255.781
 -26.457 l 255.832 -27.121 l 255.93 -27.762 l 256.074 -28.414 l 256.27 -29.055
 l 256.391 -29.387 l 256.523 -29.707 l 256.816 -30.348 l 257.184 -30.988
 l 257.574 -31.629 l 257.73 -31.879 l 257.863 -32.113 l 258 -32.363 l 258.109
 -32.602 l 258.219 -32.859 l 258.305 -33.109 l 258.375 -33.383 l 258.426
 -33.645 l 258.621 -34.5 l 258.805 -35.352 l 258.996 -36.23 l 259.168 -37.121
 l 259.559 -38.949 l 259.754 -39.883 l 259.852 -40.359 l 259.898 -40.598
 l 259.922 -40.715 l 259.938 -40.773 l 259.938 -40.824 l 260.02 -40.918 
l 260.422 -43.715 l 260.52 -43.812 l 260.594 -44.203 l 260.656 -44.605 l
 260.727 -45.035 l 260.801 -45.473 l 260.852 -45.711 l 260.887 -45.887 l
 260.887 -45.934 l 260.957 -46.422 l 261.059 -46.918 l 261.105 -47.18 l 
261.129 -47.312 l 261.141 -47.43 l 261.203 -47.715 l 261.25 -47.988 l 261.348
 -48.547 l 261.473 -49.125 l 261.566 -49.719 l 261.691 -50.348 l 261.727
 -50.516 l 261.75 -50.668 l 261.801 -50.977 l 261.871 -51.309 l 261.91 -51.477
 l 261.934 -51.629 l 262.055 -52.305 l 263.055 -57.23 l 263.371 -59.141 
l 263.383 -59.148 l 263.383 -59.176 l 263.406 -59.27 l 263.434 -59.352 l
 263.445 -59.398 l 263.445 -59.434 l 263.469 -59.543 l 263.48 -59.566 l 
263.48 -59.648 l 263.52 -59.793 l 263.543 -59.945 l 263.59 -60.109 l 263.613
 -60.289 l 263.664 -60.492 l 263.699 -60.707 l 263.75 -60.93 l 263.785 -61.168
 l 263.883 -61.738 l 263.98 -62.234 l 264.066 -62.699 l 264.148 -63.125 
l 264.211 -63.516 l 264.285 -63.883 l 264.332 -64.203 l 264.383 -64.5 l 
264.418 -64.75 l 264.648 -64.965 l 264.844 -65.215 l 265.039 -65.5 l 265.211
 -65.816 l 265.258 -65.914 l 265.281 -65.973 l 265.297 -65.996 l 265.297
 -66.031 l 265.332 -66.137 l 265.355 -66.199 l 265.367 -66.258 l 265.418
 -66.52 l 265.504 -66.781 l 265.539 -66.852 l 265.562 -66.91 l 265.637 -67.051
 l 265.688 -67.137 l 265.723 -67.207 l 265.809 -67.371 l 265.902 -67.562
 l 265.953 -67.668 l 265.977 -67.727 l 265.988 -67.773 l 266.051 -67.918
 l 266.102 -68.059 l 266.125 -68.105 l 266.137 -68.133 l 266.137 -68.145
 l 266.16 -68.215 l 266.207 -68.367 l 266.414 -68.996 l 266.598 -69.543 
l 266.781 -70.066 l 267.195 -71.074 l 267.66 -72.059 l 268.168 -72.996 l
 268.754 -73.91 l 269.363 -74.773 l 270.047 -75.617 l 270.398 -76.02 l 270.754
 -76.398 l 270.984 -76.66 l 271.168 -76.922 l 271.324 -77.207 l 271.457 
-77.492 l 272.02 -77.918 l 272.543 -78.355 l 273.055 -78.82 l 273.531 -79.305
 l 274.004 -79.816 l 274.434 -80.352 l 274.855 -80.91 l 275.246 -81.465 
l 275.43 -81.844 l 276.062 -82.793 l 276.672 -83.754 l 277.305 -84.727 l
 277.914 -85.711 l 279.156 -87.73 l 279.789 -88.762 l 280.398 -89.805 l 
281.031 -90.875 l 281.352 -91.418 l 281.438 -91.562 l 281.508 -91.691 l 
281.652 -91.953 l 282.895 -94.16 l 283.531 -95.285 l 284.141 -96.426 l 285.383
 -98.75 l 285.711 -99.414 l 285.844 -99.746 l 285.953 -100.066 l 286.148
 -100.73 l 286.258 -101.395 l 286.309 -101.742 l 286.332 -102.074 l 286.32
 -102.734 l 286.309 -103.082 l 286.258 -103.414 l 286.113 -104.078 l 285.953
 -104.66 l 285.723 -105.203 l 285.395 -105.832 l 284.98 -106.414 l 284.734
 -106.723 l 284.457 -106.996 l 284.176 -107.246 l 283.859 -107.457 l 283.543
 -107.66 l 283.188 -107.812 l 282.836 -107.945 l 282.445 -108.039 l 282.008
 -108.121 l 281.566 -108.133 l 281.129 -108.086 l 280.668 -107.969 l 280.254
 -107.836 l 279.84 -107.66 l 279.449 -107.48 l 279.059 -107.258 l 278.707
 -107.031 l 278.355 -106.781 l 278.023 -106.52 l 277.695 -106.223 l 277.402
 -105.926 l 277.109 -105.598 l 276.844 -105.254 l 276.586 -104.883 l 276.355
 -104.504 l 276.125 -104.09 l 275.918 -103.672 l 275.711 -103.211 l 275.637
 -103.047 l 275.539 -102.867 l 275.441 -102.703 l 275.32 -102.535 l 275.148
 -102.203 l 274.941 -101.871 l 274.734 -101.551 l 274.504 -101.219 l 273.188
 -99.484 l 271.848 -97.766 l 270.508 -96.07 l 269.156 -94.387 l 269 -94.348
 l 267.367 -92.438 l 267.367 -92.273 l 264.395 -88.594 l 263.992 -88.039
 l 263.543 -87.492 l 263.09 -86.957 l 262.59 -86.438 l 262.09 -85.949 l 
261.566 -85.477 l 261.02 -85.012 l 260.438 -84.574 l 259.766 -83.684 l 259.426
 -83.258 l 259.059 -82.832 l 258.316 -82.023 l 257.523 -81.242 l 257.137
 -80.883 l 256.723 -80.516 l 256.309 -80.172 l 255.867 -79.828 l 254.98 
-79.188 l 254.527 -78.891 l 254.055 -78.582 l 253.578 -78.441 l 253.043 
-78.488 l 252.871 -78.68 l 252.957 -79.996 l 253.078 -81.266 l 253.234 -82.523
 l 253.434 -83.742 l 253.676 -84.965 l 253.941 -86.141 l 254.262 -87.293
 l 254.602 -88.418 l 254.648 -88.879 l 254.699 -89.379 l 254.77 -89.867 
l 254.797 -90.09 l 254.82 -90.27 l 254.855 -90.445 l 254.879 -90.602 l 254.906
 -90.73 l 254.93 -90.836 l 254.953 -90.898 l 254.953 -90.969 l 254.98 -91.074
 l 254.98 -91.191 l 255.004 -91.359 l 255.027 -91.551 l 255.051 -91.773 
l 255.074 -92.012 l 255.102 -92.07 l 255.113 -92.121 l 255.137 -92.215 l
 255.188 -92.402 l 255.281 -92.832 l 255.379 -93.293 l 255.477 -93.781 l
 255.516 -93.922 l 255.539 -94.051 l 255.586 -94.312 l 255.688 -94.883 l
 255.746 -95.191 l 255.793 -95.488 l 255.895 -96.117 l 256.027 -96.828 l
 256.137 -97.48 l 256.246 -98.074 l 256.344 -98.609 l 256.441 -99.105 l 
256.523 -99.547 l 256.609 -99.926 l 256.672 -100.258 l 256.746 -100.531 
l 256.781 -100.672 l 256.805 -100.805 l 256.879 -101.098 l 256.93 -101.41
 l 257.074 -102.074 l 257.145 -102.43 l 257.184 -102.617 l 257.207 -102.797
 l 257.258 -103 l 257.293 -103.188 l 257.367 -103.59 l 257.438 -104.02 l
 257.512 -104.457 l 257.562 -104.695 l 257.598 -104.871 l 257.598 -104.918
 l 257.672 -105.383 l 257.742 -105.867 l 257.816 -106.367 l 258.363 -110.082
 l 258.375 -110.461 l 258.375 -110.828 l 258.402 -111.574 l 258.426 -111.965
 l 258.438 -112.348 l 258.484 -113.129 l 258.559 -113.949 l 258.609 -114.363
 l 258.645 -114.766 l 258.742 -115.609 l 258.852 -116.461 l 258.875 -116.559
 l 258.891 -116.605 l 258.891 -116.641 l 258.914 -116.809 l 258.961 -117.148
 l 259.023 -117.508 l 259.07 -117.863 l 259.191 -118.609 l 259.266 -119 
l 259.289 -119.109 l 259.305 -119.203 l 259.328 -119.391 l 259.375 -119.605
 l 259.398 -119.715 l 259.41 -119.809 l 259.484 -120.223 l 259.535 -120.449
 l 259.57 -120.664 l 259.645 -121.09 l 259.812 -121.992 l 259.984 -122.918
 l 260.094 -122.988 l 261.105 -129.738 l 261.141 -130.297 l 261.164 -130.867
 l 261.191 -131.48 l 261.191 -132.109 l 261.203 -132.75 l 261.191 -133.344
 l 261.18 -133.902 l 261.141 -134.398 l 261.105 -134.875 l 261.059 -135.289
 l 260.996 -135.68 l 260.922 -136.012 l 260.68 -136.5 l 260.422 -136.914
 l 260.129 -137.281 l 259.84 -137.617 l 259.523 -137.91 l 259.203 -138.184
 l 258.863 -138.41 l 258.523 -138.609 l 258.145 -138.766 l 257.781 -138.906
 l 257.391 -139.004 l 257 -139.074 l 256.574 -139.098 l 256.16 -139.098 
l 255.711 -139.062 l 255.258 -138.992 l 254.785 -138.871 l 254.43 -138.766
 l 254.09 -138.637 l 253.762 -138.48 l 253.457 -138.305 l 253.176 -138.102
 l 252.906 -137.875 l 252.664 -137.629 l 252.434 -137.332 l 251.715 -136.098
 l 251.02 -134.828 l 250.363 -133.559 l 249.742 -132.266 l 249.168 -130.973
 l 248.621 -129.645 l 248.109 -128.312 l 247.621 -126.949 l 247.195 -125.598
 l 246.793 -124.211 l 246.438 -122.82 l 246.109 -121.41 l 245.832 -120 l
 245.574 -118.551 l 245.367 -117.102 l 245.188 -115.621 l 245.051 -115.539
 l 244.988 -115.406 l 244.918 -115.219 l 244.832 -114.992 l 244.734 -114.707
 l 244.637 -114.41 l 244.527 -114.055 l 244.406 -113.664 l 244.27 -113.223
 l 244.137 -112.762 l 243.992 -112.25 l 243.832 -111.707 l 243.664 -111.102
 l 243.492 -110.473 l 243.297 -109.797 l 243.102 -109.082 l 242.883 -108.312
 l 242.664 -107.457 l 242.418 -106.535 l 242.164 -105.559 l 241.887 -104.504
 l 241.605 -103.402 l 241.285 -102.227 l 240.957 -101.004 l 240.605 -99.699
 l 240.484 -99.641 l 239.363 -95.309 l 239.215 -94.73 l 239.07 -94.172 l
 238.926 -93.637 l 238.777 -93.117 l 238.656 -92.629 l 238.512 -92.145 l
 238.391 -91.68 l 238.328 -91.465 l 238.254 -91.242 l 238.145 -90.836 l 
238.023 -90.445 l 237.926 -90.078 l 237.805 -89.723 l 237.609 -89.082 l 
237.523 -88.797 l 237.426 -88.523 l 237.391 -88.477 l 237.328 -88.441 l 
237.242 -88.43 l 237.109 -88.441 l 236.414 -89.133 235.922 -89.996 235.676
 -90.945 c 235.16 -92.938 l 235.062 -93.246 l 234.895 -94.289 l 234.746 
-95.309 l 234.637 -96.332 l 234.539 -97.328 l 234.504 -98.348 l 234.488 
-98.871 l 234.465 -99.379 l 234.48 -100.422 l 234.488 -100.566 l 234.488
 -100.957 l 234.504 -101.48 l 234.527 -101.836 l 234.539 -101.93 l 234.539
 -102.18 l 234.562 -102.879 l 234.586 -103.246 l 234.602 -103.602 l 234.625
 -104.34 l 234.672 -105.109 l 234.699 -105.879 l 234.746 -106.676 l 234.77
 -107.48 l 234.82 -108.301 l 234.867 -109.082 l 234.918 -109.855 l 234.941
 -110.578 l 234.988 -111.301 l 235.027 -111.977 l 235.074 -112.629 l 235.102
 -113.258 l 235.148 -113.875 l 235.188 -114.457 l 235.234 -115.016 l 235.258
 -115.539 l 235.309 -116.047 l 235.332 -116.523 l 235.379 -116.984 l 235.402
 -117.398 l 235.488 -118.418 l 235.516 -119.43 l 235.488 -120.438 l 235.414
 -121.434 l 235.414 -121.469 l 235.43 -121.539 l 235.43 -121.754 l 235.453
 -121.941 l 235.465 -122.062 l 235.465 -122.168 l 235.488 -122.312 l 235.5
 -122.383 l 235.5 -122.441 l 235.527 -122.738 l 235.551 -122.906 l 235.562
 -123.07 l 235.586 -123.438 l 235.637 -123.816 l 235.672 -124.137 l 235.695
 -124.434 l 235.723 -124.672 l 235.746 -124.898 l 235.758 -125.062 l 235.758
 -125.277 l 235.77 -125.418 l 235.77 -126.465 l 235.793 -126.809 l 235.793
 -127.164 l 235.809 -127.543 l 235.809 -127.922 l 235.828 -128.336 l 235.844
 -128.766 l 235.867 -129.215 l 235.879 -129.668 l 235.902 -130.152 l 235.93
 -130.652 l 235.953 -131.16 l 235.965 -131.684 l 236.039 -132.762 l 236.086
 -133.785 l 236.137 -134.766 l 236.184 -135.703 l 236.246 -136.605 l 236.281
 -137.496 l 236.293 -138.387 l 236.258 -139.262 l 236.195 -141.055 l 236.098
 -142.859 l 235.988 -144.684 l 235.844 -146.512 l 235.93 -147.188 l 235.953
 -147.52 l 235.953 -148.457 l 235.891 -149.039 l 235.816 -149.621 l 235.684
 -150.152 l 235.609 -150.426 l 235.516 -150.676 l 235.293 -151.164 l 235.051
 -151.648 l 234.758 -152.09 l 234.43 -152.504 l 234.051 -152.895 l 233.648
 -153.262 l 233.199 -153.605 l 232.711 -153.926 l 232.164 -154.211 l 231.824
 -154.379 l 231.469 -154.496 l 231.117 -154.59 l 230.75 -154.629 l 230.387
 -154.648 l 230.008 -154.629 l 229.629 -154.566 l 229.242 -154.461 l 228.875
 -154.355 l 228.512 -154.211 l 228.156 -154.07 l 227.816 -153.891 l 227.5
 -153.715 l 227.195 -153.512 l 226.902 -153.297 l 226.609 -153.051 l 226.355
 -152.812 l 226.098 -152.551 l 225.855 -152.277 l 225.609 -151.969 l 225.402
 -151.672 l 225.195 -151.34 l 225 -150.996 l 224.82 -150.629 l 224.574 -150.012
 l 224.465 -149.703 l 224.367 -149.371 l 224.223 -148.719 l 224.102 -148.055
 l 223.965 -146.738 l 223.855 -145.41 l 223.762 -144.082 l 223.676 -142.738
 l 223.66 -142.242 l 223.625 -141.707 l 223.59 -141.148 l 223.539 -140.547
 l 223.492 -139.93 l 223.43 -139.273 l 223.371 -138.586 l 223.285 -137.863
 l 223.211 -137.082 l 223.211 -137 l 223.199 -136.902 l 223.176 -136.715
 l 223.125 -136.344 l 223.102 -136 l 223.066 -135.668 l 222.992 -135.027
 l 222.941 -134.461 l 222.918 -134.188 l 222.918 -134.129 l 222.906 -134.055
 l 222.883 -133.914 l 222.832 -133.438 l 222.809 -133.215 l 222.785 -133
 l 222.734 -132.523 l 222.676 -131.992 l 222.676 -131.848 l 222.652 -131.719
 l 222.652 -131.637 l 222.641 -131.609 l 222.613 -131.516 l 222.613 -131.41
 l 222.602 -131.387 l 222.602 -131.352 l 222.578 -131.316 l 222.297 -129.797
 l 222.031 -128.266 l 221.773 -126.734 l 221.543 -125.195 l 221.336 -123.664
 l 221.152 -122.121 l 220.98 -120.578 l 220.824 -119.023 l 220.691 -117.34
 l 220.445 -111.609 l 220.531 -111.469 l 220.41 -109.332 l 220.227 -107.172
 l 219.996 -105.004 l 219.703 -102.809 l 219.363 -100.613 l 218.961 -98.383
 l 218.512 -96.152 l 218.129 -94.473 l 218.043 -94.09 217.914 -93.719 217.746
 -93.363 c 217.098 -91.977 l 216.914 -91.859 l 216.863 -91.836 l 216.84 
-91.824 l 216.805 -91.797 l 216.684 -91.727 l 216.574 -91.68 l 216.449 -91.621
 l 216.281 -91.562 l 216.109 -91.512 l 215.965 -91.492 l 215.805 -91.465
 l 215.781 -91.48 l 215.672 -91.48 l 215.648 -91.492 l 215.535 -91.492 l
 215.488 -91.512 l 215.465 -91.523 l 215.43 -91.523 l 215.305 -91.574 l 
215.281 -91.609 l 215.234 -91.656 l 215.184 -91.715 l 215.121 -91.789 l 
215 -91.977 l 214.844 -92.215 l 214.223 -93.484 l 214.195 -93.59 l 214.16
 -93.684 l 214.086 -93.875 l 213.941 -94.254 l 213.648 -95.012 l 213.383
 -95.785 l 213.113 -96.543 l 212.625 -98.086 l 212.219 -99.48 l 212.191 
-99.578 212.164 -99.68 212.141 -99.777 c 211.652 -101.883 l 211.383 -103.02
 l 211.117 -104.172 l 210.566 -106.52 l 209.996 -108.918 l 209.727 -110.117
 l 209.605 -110.699 l 209.473 -111.242 l 209.227 -112.324 l 209.117 -112.844
 l 208.996 -113.332 l 208.898 -113.828 l 208.789 -114.293 l 208.691 -114.754
 l 208.582 -115.18 l 208.387 -116.023 l 208.301 -116.426 l 208.203 -116.793
 l 208.059 -117.531 l 207.91 -118.195 l 207.852 -118.516 l 207.777 -118.801
 l 207.656 -119.332 l 207.559 -119.832 l 207.523 -120.059 l 207.473 -120.258
 l 207.402 -120.629 l 207.328 -120.922 l 207.34 -121.293 l 206.535 -124.125
 l 206.281 -124.84 l 206.012 -125.562 l 205.742 -126.332 l 205.465 -127.117
 l 205.34 -127.52 l 205.207 -127.898 l 205.098 -128.266 l 204.977 -128.609
 l 204.879 -128.953 l 204.781 -129.262 l 204.695 -129.57 l 204.598 -129.844
 l 204.539 -130.129 l 204.465 -130.379 l 204.402 -130.617 l 204.344 -130.828
 l 204.309 -131.043 l 204.258 -131.23 l 204.223 -131.41 l 204.184 -131.551
 l 204.062 -131.578 l 203.977 -132.23 l 203.832 -132.871 l 203.66 -133.5
 l 203.441 -134.117 l 203.43 -134.188 l 203.406 -134.27 l 203.367 -134.375
 l 203.32 -134.496 l 203.285 -134.637 l 203.234 -134.793 l 203.188 -134.969
 l 203.113 -135.16 l 203.062 -135.375 l 202.992 -135.598 l 202.918 -135.848
 l 202.832 -136.109 l 202.762 -136.395 l 202.664 -136.688 l 202.566 -137.008
 l 202.457 -137.344 l 202.199 -138.008 l 201.957 -138.609 l 201.273 -139.512
 l 200.992 -139.703 l 200.91 -139.785 l 200.797 -139.855 l 200.492 -140 
l 200.324 -140.082 l 200.117 -140.152 l 199.641 -140.297 l 199.141 -140.426
 l 198.668 -140.535 l 196.012 -140.355 l 195.707 -140.227 l 195.391 -140.07
 l 194.805 -139.75 l 194.27 -139.406 l 194.027 -139.227 l 193.77 -139.027
 l 193.551 -138.836 l 193.332 -138.625 l 193.137 -138.41 l 192.93 -138.172
 l 192.762 -137.949 l 192.59 -137.699 l 192.273 -137.188 l 192.148 -136.938
 l 192.027 -136.668 l 191.918 -136.395 l 191.809 -136.098 l 191.734 -135.812
 l 191.652 -135.504 l 191.527 -134.875 l 191.469 -134.223 l 191.457 -133.891
 l 191.445 -133.535 l 191.457 -133.191 l 191.469 -132.824 l 191.504 -132.453
 l 191.527 -132.062 l S Q
q 1 0 0 -1 0 0 cm
191.527 -132.062 m 191.859 -129.547 l 192.223 -127.031 l 192.625 -124.52
 l 193.051 -122 l 197.129 -96.105 l 197.164 -95.887 197.211 -95.664 197.273
 -95.449 c 197.605 -94.289 l 197.984 -92.793 l 198.324 -91.301 l 198.633
 -89.805 l 198.91 -88.312 l 199.141 -86.816 l 199.336 -85.32 l 199.484 -83.816
 l 199.617 -82.32 l 199.703 -80.824 l 199.762 -79.332 l 199.777 -77.812 
l 199.762 -76.316 l 199.703 -74.801 l 199.617 -73.293 l 199.484 -71.773 
l 199.398 -71.039 l 199.266 -70.305 l 199.094 -69.59 l 198.863 -68.891 l
 198.754 -68.559 l 198.617 -68.215 l 198.312 -67.551 l 197.973 -66.91 l 
197.57 -66.27 l 197.547 -66.223 l 197.5 -66.148 l 197.449 -66.078 l 197.375
 -65.984 l 197.219 -65.77 l 197.012 -65.496 l 196.973 -65.449 l 196.926 
-65.391 l 196.887 -65.344 l 196.84 -65.285 l 196.816 -65.25 l 196.777 -65.199
 l 196.754 -65.164 l 196.719 -65.117 l 196.68 -65.07 l 196.645 -65.023 l
 196.621 -64.977 l 196.145 -64.266 l 195.621 -63.562 l 195.098 -62.887 l
 194.527 -62.234 l 193.953 -61.605 l 193.332 -60.988 l 192.711 -60.395 l
 192.043 -59.816 l 190.066 -59.875 l 189.312 -60.387 l 188.41 -61.023 l 
187.535 -61.652 l 186.875 -62.164 l 186.266 -62.625 l 185.707 -63.09 l 185.438
 -63.305 l 185.184 -63.504 l 184.719 -63.918 l 184.305 -64.289 l 183.941
 -64.633 l 183.625 -64.953 l 182.625 -65.914 l 181.953 -66.695 l 181.273
 -67.715 l 181.273 -67.738 l 181.262 -67.777 l 181.238 -67.824 l 181.199
 -67.883 l 181.164 -67.965 l 181.102 -68.062 l 181.043 -68.168 l 180.957
 -68.285 l 180.652 -68.809 l 179.809 -71.402 l 179.703 -71.723 179.574 -72.027
 179.414 -72.32 c 179.07 -72.957 l 178.859 -73.344 178.602 -73.707 178.301
 -74.031 c 177.68 -74.715 l 177.582 -74.801 l 177.461 -74.871 l 177.203 
-75.035 l 177.07 -75.133 l 176.91 -75.215 l 176.582 -75.391 l 176.242 -75.605
 l 175.863 -75.82 l 175.672 -75.938 l 175.449 -76.043 l 175 -76.27 l 174.562
 -76.52 l 174.137 -76.73 l 173.734 -76.945 l 173.344 -77.137 l 172.344 -77.645
 l 171.348 -78.074 l 170.348 -78.453 l 169.348 -78.762 l 168.859 -78.902
 l 168.363 -79.023 l 167.363 -79.199 l 166.363 -79.332 l 165.363 -79.391
 l 164.391 -79.402 l 163.391 -79.344 l 162.902 -79.309 l 162.406 -79.234
 l 161.406 -79.047 l 160.434 -78.809 l 159.434 -78.5 l 158.461 -78.133 l
 157.461 -77.691 l 157.191 -77.562 l 156.938 -77.395 l 156.691 -77.219 l
 156.461 -76.992 l 156.254 -76.77 l 156.059 -76.508 l 155.875 -76.234 l 
155.707 -75.926 l 155.621 -75.734 l 155.547 -75.523 l 155.488 -75.309 l 
155.438 -75.082 l 155.391 -74.645 l 155.391 -74.184 l 155.414 -73.992 l 
155.449 -73.801 l 155.5 -73.613 l 155.547 -73.41 l 155.586 -73.375 l 155.609
 -73.316 l 155.68 -73.16 l 155.793 -72.984 l 155.926 -72.758 l 157.324 -71.715
 l 158.703 -70.637 l 160.055 -69.52 l 161.359 -68.367 l 162.66 -67.195 l
 163.914 -65.996 l 164.551 -65.391 l 165.156 -64.762 l 166.363 -63.492 l
 166.898 -62.887 l 167.156 -62.566 l 167.375 -62.223 l 167.605 -61.879 l
 167.996 -61.145 l 168.168 -60.75 l S Q
  Q
Q
Q Q
showpage
%%Trailer
end
%%EOF
