%!PS-Adobe-3.0 EPSF-3.0
%%Creator: cairo 1.16.0 (https://cairographics.org)
%%CreationDate: Wed Jun 29 10:13:20 2022
%%Pages: 1
%%DocumentData: Clean7Bit
%%LanguageLevel: 2
%%BoundingBox: 0 0 29 43
%%EndComments
%%BeginProlog
50 dict begin
/q { gsave } bind def
/Q { grestore } bind def
/cm { 6 array astore concat } bind def
/w { setlinewidth } bind def
/J { setlinecap } bind def
/j { setlinejoin } bind def
/M { setmiterlimit } bind def
/d { setdash } bind def
/m { moveto } bind def
/l { lineto } bind def
/c { curveto } bind def
/h { closepath } bind def
/re { exch dup neg 3 1 roll 5 3 roll moveto 0 rlineto
      0 exch rlineto 0 rlineto closepath } bind def
/S { stroke } bind def
/f { fill } bind def
/f* { eofill } bind def
/n { newpath } bind def
/W { clip } bind def
/W* { eoclip } bind def
/BT { } bind def
/ET { } bind def
/BDC { mark 3 1 roll /BDC pdfmark } bind def
/EMC { mark /EMC pdfmark } bind def
/cairo_store_point { /cairo_point_y exch def /cairo_point_x exch def } def
/Tj { show currentpoint cairo_store_point } bind def
/TJ {
  {
    dup
    type /stringtype eq
    { show } { -0.001 mul 0 cairo_font_matrix dtransform rmoveto } ifelse
  } forall
  currentpoint cairo_store_point
} bind def
/cairo_selectfont { cairo_font_matrix aload pop pop pop 0 0 6 array astore
    cairo_font exch selectfont cairo_point_x cairo_point_y moveto } bind def
/Tf { pop /cairo_font exch def /cairo_font_matrix where
      { pop cairo_selectfont } if } bind def
/Td { matrix translate cairo_font_matrix matrix concatmatrix dup
      /cairo_font_matrix exch def dup 4 get exch 5 get cairo_store_point
      /cairo_font where { pop cairo_selectfont } if } bind def
/Tm { 2 copy 8 2 roll 6 array astore /cairo_font_matrix exch def
      cairo_store_point /cairo_font where { pop cairo_selectfont } if } bind def
/g { setgray } bind def
/rg { setrgbcolor } bind def
/d1 { setcachedevice } bind def
/cairo_data_source {
  CairoDataIndex CairoData length lt
    { CairoData CairoDataIndex get /CairoDataIndex CairoDataIndex 1 add def }
    { () } ifelse
} def
/cairo_flush_ascii85_file { cairo_ascii85_file status { cairo_ascii85_file flushfile } if } def
/cairo_image { image cairo_flush_ascii85_file } def
/cairo_imagemask { imagemask cairo_flush_ascii85_file } def
%%EndProlog
%%BeginSetup
%%EndSetup
%%Page: 1 1
%%BeginPageSetup
%%PageBoundingBox: 0 0 29 43
%%EndPageSetup
q 0 0 29 43 rectclip
1 0 0 -1 0 43 cm q
0.00392157 0 0.00784314 rg
18.852 4.215 m 18.852 6.543 16.965 8.43 14.637 8.43 c 12.309 8.43 10.422
 6.543 10.422 4.215 c 10.422 1.887 12.309 0 14.637 0 c 16.965 0 18.852 1.887
 18.852 4.215 c h
18.852 4.215 m f
28.191 1.25 m 27.492 0.555 26.363 0.555 25.672 1.25 c 17.117 9.805 l 16.438
 9.359 15.629 9.102 14.754 9.102 c 13.68 9.102 12.695 9.496 11.938 10.145
 c 3.047 1.25 l 2.348 0.555 1.219 0.555 0.523 1.25 c -0.176 1.949 -0.176
 3.078 0.523 3.773 c 9.895 13.148 l 10.051 13.305 10.23 13.418 10.422 13.508
 c 10.422 23.629 l 10.422 23.852 10.441 24.062 10.473 24.273 c 10.441 24.406
 10.422 24.543 10.422 24.688 c 10.422 40.488 l 10.422 41.473 11.223 42.273
 12.207 42.273 c 13.191 42.273 13.992 41.477 13.992 40.488 c 13.992 27.891
 l 14.238 27.938 14.492 27.965 14.754 27.965 c 15.02 27.965 15.273 27.938
 15.52 27.891 c 15.52 40.488 l 15.52 41.477 16.32 42.273 17.305 42.273 c
 18.289 42.273 19.09 41.477 19.09 40.488 c 19.09 24.688 l 19.09 24.543 19.066
 24.402 19.035 24.27 c 19.066 24.062 19.09 23.848 19.09 23.629 c 19.09 13.434
 l 19.09 13.258 19.074 13.086 19.055 12.914 c 28.191 3.773 l 28.891 3.078
 28.891 1.949 28.191 1.25 c h
28.191 1.25 m f
Q Q
showpage
%%Trailer
end
%%EOF
