%!PS-Adobe-3.0 EPSF-3.0
%%Creator: cairo 1.16.0 (https://cairographics.org)
%%CreationDate: Tue Jun 28 16:15:14 2022
%%Pages: 1
%%DocumentData: Clean7Bit
%%LanguageLevel: 2
%%BoundingBox: 0 0 333 198
%%EndComments
%%BeginProlog
50 dict begin
/q { gsave } bind def
/Q { grestore } bind def
/cm { 6 array astore concat } bind def
/w { setlinewidth } bind def
/J { setlinecap } bind def
/j { setlinejoin } bind def
/M { setmiterlimit } bind def
/d { setdash } bind def
/m { moveto } bind def
/l { lineto } bind def
/c { curveto } bind def
/h { closepath } bind def
/re { exch dup neg 3 1 roll 5 3 roll moveto 0 rlineto
      0 exch rlineto 0 rlineto closepath } bind def
/S { stroke } bind def
/f { fill } bind def
/f* { eofill } bind def
/n { newpath } bind def
/W { clip } bind def
/W* { eoclip } bind def
/BT { } bind def
/ET { } bind def
/BDC { mark 3 1 roll /BDC pdfmark } bind def
/EMC { mark /EMC pdfmark } bind def
/cairo_store_point { /cairo_point_y exch def /cairo_point_x exch def } def
/Tj { show currentpoint cairo_store_point } bind def
/TJ {
  {
    dup
    type /stringtype eq
    { show } { -0.001 mul 0 cairo_font_matrix dtransform rmoveto } ifelse
  } forall
  currentpoint cairo_store_point
} bind def
/cairo_selectfont { cairo_font_matrix aload pop pop pop 0 0 6 array astore
    cairo_font exch selectfont cairo_point_x cairo_point_y moveto } bind def
/Tf { pop /cairo_font exch def /cairo_font_matrix where
      { pop cairo_selectfont } if } bind def
/Td { matrix translate cairo_font_matrix matrix concatmatrix dup
      /cairo_font_matrix exch def dup 4 get exch 5 get cairo_store_point
      /cairo_font where { pop cairo_selectfont } if } bind def
/Tm { 2 copy 8 2 roll 6 array astore /cairo_font_matrix exch def
      cairo_store_point /cairo_font where { pop cairo_selectfont } if } bind def
/g { setgray } bind def
/rg { setrgbcolor } bind def
/d1 { setcachedevice } bind def
/cairo_data_source {
  CairoDataIndex CairoData length lt
    { CairoData CairoDataIndex get /CairoDataIndex CairoDataIndex 1 add def }
    { () } ifelse
} def
/cairo_flush_ascii85_file { cairo_ascii85_file status { cairo_ascii85_file flushfile } if } def
/cairo_image { image cairo_flush_ascii85_file } def
/cairo_imagemask { imagemask cairo_flush_ascii85_file } def
%%EndProlog
%%BeginSetup
%%EndSetup
%%Page: 1 1
%%BeginPageSetup
%%PageBoundingBox: 0 0 333 198
%%EndPageSetup
q 0 0 333 198 rectclip
1 0 0 -1 0 198 cm q
0.00392157 g
18.977 162.824 m 21.375 162.676 l 24.496 162.23 27.484 161.133 30.148 159.449
 c 30.148 163.352 l 30.148 173.176 37.051 181.426 46.648 182.551 c 48.75
 182.699 l 52.586 182.699 56.328 181.52 59.477 179.324 c 60.117 188.457 
67.117 195.867 76.199 197.023 c 78.449 197.176 l 88.504 197.191 96.828 189.363
 97.426 179.324 c 99.961 181.109 102.898 182.242 105.977 182.625 c 108.375
 182.773 l 118.934 182.777 127.527 174.281 127.648 163.727 c 127.648 99.227
 l 131.852 103.426 l 139.234 110.688 151.098 110.621 158.398 103.273 c 165.594
 96.074 165.793 84.469 158.852 77.023 c 118.426 23.773 l 117.523 12.301 
l 116.977 5.41 111.238 0.094 104.324 0.074 c 30.449 0.074 l 23.836 0.121
 18.254 5.004 17.324 11.551 c 15.523 25.273 l 9.824 34.426 5.852 46.574 
3.227 61.426 c 0.898 74.398 0 89.773 0 107.102 c 0 143.852 l 0.043 154.312
 8.512 162.785 18.977 162.824 c h
26.398 12.75 m 26.703 10.68 28.508 9.164 30.602 9.227 c 104.477 9.227 l
 106.656 9.137 108.516 10.797 108.676 12.977 c 109.727 27 l 152.023 82.875
 l 155.391 86.844 155.141 92.73 151.453 96.398 c 147.766 100.07 141.875 
100.285 137.926 96.898 c 126 85.648 l 125.246 84.836 124.184 84.371 123.074
 84.375 c 120.539 84.371 118.52 86.492 118.648 89.023 c 118.648 163.727 
l 118.527 169.312 113.965 173.777 108.375 173.773 c 107.176 173.773 l 102.047
 173.09 98.242 168.676 98.324 163.5 c 98.324 111.977 l 98.324 109.293 96.129
 107.133 93.449 107.176 c 90.758 107.176 88.574 109.359 88.574 112.051 c
 88.574 178.125 l 88.492 183.672 83.996 188.137 78.449 188.176 c 77.25 188.176
 l 72.121 187.492 68.316 183.074 68.398 177.898 c 68.398 111.977 l 68.449
 105.477 58.699 105.398 58.648 111.898 c 58.648 163.648 l 58.648 166.316
 57.59 168.871 55.707 170.758 c 53.82 172.641 51.266 173.699 48.602 173.699
 c 47.699 173.699 l 42.602 173.102 39.148 168.602 39.148 163.426 c 39.148
 112.051 l 39.148 109.273 36.301 106.801 33.523 106.801 c 33.449 106.801
 l 30.898 106.801 29.398 109.125 29.398 111.676 c 29.398 143.477 l 29.332
 148.699 25.434 153.078 20.25 153.75 c 19.125 153.75 l 16.465 153.75 13.918
 152.688 12.047 150.801 c 10.172 148.914 9.129 146.359 9.148 143.699 c 9.148
 106.949 l 9.148 75.602 12.75 46.574 24 29.023 c 24.32 28.504 24.5 27.91
 24.523 27.301 c h
26.398 12.75 m f
332.551 143.699 m 332.551 106.949 l 332.551 89.625 331.648 74.25 329.324
 61.273 c 326.699 46.426 322.727 34.273 317.023 25.125 c 315.227 11.477 
l 314.297 4.926 308.715 0.047 302.102 0 c 228.227 0 l 221.34 0.016 215.609
 5.289 215.023 12.148 c 214.125 23.625 l 173.699 76.875 l 166.758 84.32 
166.957 95.926 174.148 103.125 c 181.453 110.469 193.316 110.535 200.699
 103.273 c 204.898 99.074 l 204.898 163.574 l 205.023 174.133 213.617 182.625
 224.176 182.625 c 226.574 182.477 l 229.652 182.094 232.59 180.961 235.125
 179.176 c 235.723 189.211 244.043 197.043 254.102 197.023 c 256.352 196.875
 l 265.434 195.719 272.434 188.309 273.074 179.176 c 276.219 181.371 279.965
 182.547 283.801 182.551 c 285.898 182.398 l 295.5 181.273 302.398 173.023
 302.398 163.199 c 302.398 159.301 l 305.066 160.98 308.055 162.082 311.176
 162.523 c 313.574 162.676 l 324.039 162.633 332.508 154.164 332.551 143.699
 c h
308.023 27.227 m 308.051 27.836 308.23 28.43 308.551 28.949 c 319.801 46.5
 323.398 75.523 323.398 106.875 c 323.398 143.625 l 323.422 146.285 322.379
 148.84 320.504 150.727 c 318.633 152.613 316.082 153.676 313.426 153.676
 c 312.301 153.676 l 307.117 153.004 303.219 148.625 303.148 143.398 c 303.148
 111.523 l 303.148 108.977 301.648 106.648 299.102 106.648 c 299.023 106.648
 l 296.25 106.648 293.398 109.125 293.398 111.898 c 293.398 163.199 l 293.398
 168.375 289.949 172.875 284.852 173.477 c 283.949 173.477 l 278.398 173.477
 273.898 168.977 273.898 163.426 c 273.898 111.676 l 273.852 105.176 264.102
 105.25 264.148 111.75 c 264.148 177.602 l 264.234 182.773 260.43 187.191
 255.301 187.875 c 254.102 187.875 l 248.555 187.836 244.055 183.371 243.977
 177.824 c 243.977 111.898 l 243.977 109.207 241.793 107.023 239.102 107.023
 c 236.418 106.984 234.227 109.145 234.227 111.824 c 234.227 163.273 l 234.309
 168.449 230.504 172.867 225.375 173.551 c 224.176 173.551 l 218.586 173.551
 214.023 169.086 213.898 163.5 c 213.898 88.875 l 214.027 86.344 212.008
 84.223 209.477 84.227 c 208.363 84.223 207.305 84.684 206.551 85.5 c 194.625
 96.75 l 192.824 98.871 190.219 100.145 187.441 100.262 c 184.66 100.379
 181.957 99.332 179.984 97.371 c 178.012 95.406 176.949 92.711 177.051 89.93
 c 177.152 87.148 178.414 84.535 180.523 82.727 c 222.824 26.926 l 223.875
 12.898 l 224.035 10.723 225.895 9.062 228.074 9.148 c 301.949 9.148 l 304.043
 9.09 305.848 10.605 306.148 12.676 c h
308.023 27.227 m f
Q Q
showpage
%%Trailer
end
%%EOF
