%!PS-Adobe-3.0 EPSF-3.0
%%Creator: cairo 1.16.0 (https://cairographics.org)
%%CreationDate: Wed Jun 29 09:56:09 2022
%%Pages: 1
%%DocumentData: Clean7Bit
%%LanguageLevel: 2
%%BoundingBox: 0 0 129 143
%%EndComments
%%BeginProlog
50 dict begin
/q { gsave } bind def
/Q { grestore } bind def
/cm { 6 array astore concat } bind def
/w { setlinewidth } bind def
/J { setlinecap } bind def
/j { setlinejoin } bind def
/M { setmiterlimit } bind def
/d { setdash } bind def
/m { moveto } bind def
/l { lineto } bind def
/c { curveto } bind def
/h { closepath } bind def
/re { exch dup neg 3 1 roll 5 3 roll moveto 0 rlineto
      0 exch rlineto 0 rlineto closepath } bind def
/S { stroke } bind def
/f { fill } bind def
/f* { eofill } bind def
/n { newpath } bind def
/W { clip } bind def
/W* { eoclip } bind def
/BT { } bind def
/ET { } bind def
/BDC { mark 3 1 roll /BDC pdfmark } bind def
/EMC { mark /EMC pdfmark } bind def
/cairo_store_point { /cairo_point_y exch def /cairo_point_x exch def } def
/Tj { show currentpoint cairo_store_point } bind def
/TJ {
  {
    dup
    type /stringtype eq
    { show } { -0.001 mul 0 cairo_font_matrix dtransform rmoveto } ifelse
  } forall
  currentpoint cairo_store_point
} bind def
/cairo_selectfont { cairo_font_matrix aload pop pop pop 0 0 6 array astore
    cairo_font exch selectfont cairo_point_x cairo_point_y moveto } bind def
/Tf { pop /cairo_font exch def /cairo_font_matrix where
      { pop cairo_selectfont } if } bind def
/Td { matrix translate cairo_font_matrix matrix concatmatrix dup
      /cairo_font_matrix exch def dup 4 get exch 5 get cairo_store_point
      /cairo_font where { pop cairo_selectfont } if } bind def
/Tm { 2 copy 8 2 roll 6 array astore /cairo_font_matrix exch def
      cairo_store_point /cairo_font where { pop cairo_selectfont } if } bind def
/g { setgray } bind def
/rg { setrgbcolor } bind def
/d1 { setcachedevice } bind def
/cairo_data_source {
  CairoDataIndex CairoData length lt
    { CairoData CairoDataIndex get /CairoDataIndex CairoDataIndex 1 add def }
    { () } ifelse
} def
/cairo_flush_ascii85_file { cairo_ascii85_file status { cairo_ascii85_file flushfile } if } def
/cairo_image { image cairo_flush_ascii85_file } def
/cairo_imagemask { imagemask cairo_flush_ascii85_file } def
%%EndProlog
%%BeginSetup
%%EndSetup
%%Page: 1 1
%%BeginPageSetup
%%PageBoundingBox: 0 0 129 143
%%EndPageSetup
q 0 0 129 143 rectclip
1 0 0 -1 0 143 cm q
0 g
127.641 45.801 m 126.566 36.715 123.383 29.605 118.18 24.676 c 113.59 20.324
 107.527 17.934 101.109 17.934 c 100.883 17.934 100.656 17.934 100.434 17.941
 c 95.469 11.547 88.434 8.062 80.348 8.062 c 78.531 8.062 76.68 8.238 74.82
 8.582 c 70.277 3.492 63.922 0.516 57.367 0.516 c 53.395 0.516 49.504 1.625
 46.129 3.684 c 42.508 1.305 38.16 0 33.621 0 c 27.758 0 22.379 2.152 18.473
 6.066 c 14.586 9.957 12.535 15.18 12.543 21.172 c 12.551 28.273 12.566 
29.781 12.586 31.238 c 12.602 32.402 12.613 33.508 12.621 37.539 c 6.93 
40.582 2.996 45.398 1.172 51.594 c -1.641 61.148 0.598 73.457 8.016 89.219
 c 12.898 99.59 18.758 108.664 21.562 112.801 c 22.809 129.352 l 23.363 
136.742 29.602 142.531 37.012 142.531 c 96 142.457 l 103.113 142.449 109.18
 137.121 110.105 130.066 c 112.398 112.617 l 129.883 85.184 129.48 61.375
 127.641 45.801 c h
103.586 110.602 m 101.184 128.895 l 100.84 131.504 98.621 133.449 95.988
 133.453 c 37.02 133.516 l 37.016 133.516 37.016 133.516 37.012 133.516 
c 34.27 133.516 31.988 131.41 31.781 128.672 c 30.461 111.117 l 30.391 110.191
 30.078 109.305 29.555 108.539 c 24.156 100.695 -5.984 54.93 18.43 44.73
 c 20.367 43.922 21.625 42.008 21.621 39.906 c 21.605 27.457 21.559 34.926
 21.543 21.16 c 21.531 12.969 27.496 9 33.621 9 c 37.297 9 41.035 10.43 
43.562 13.238 c 44.379 14.141 45.09 14.512 45.789 14.512 c 46.836 14.512
 47.859 13.676 49.164 12.559 c 51.57 10.508 54.453 9.516 57.367 9.516 c 
61.727 9.516 66.152 11.727 69.16 15.895 c 70.145 17.254 71.719 18 73.352
 18 c 73.812 18 74.273 17.941 74.734 17.82 c 76.285 17.41 78.227 17.062 
80.344 17.062 c 84.98 17.062 90.453 18.734 94.48 25.109 c 95.195 26.242 
96.395 27.227 97.695 27.227 c 97.84 27.227 97.988 27.215 98.137 27.188 c
 99.094 27.02 100.09 26.93 101.109 26.93 c 108.453 26.93 116.91 31.688 118.703
 46.855 c 120.602 62.934 120.152 84.066 104.391 108.43 c 103.969 109.086
 103.688 109.828 103.586 110.602 c h
103.586 110.602 m f
Q Q
showpage
%%Trailer
end
%%EOF
