\version "2.20.0"

\markup {
  \general-align #Y #DOWN {
    %\epsfile #X #20 #"suonoforma01-1b.eps"
    \epsfile #Y #20 #"home/davide/gitlab/DavideTedesco/avidi_lumi_and_evo_ensemble/img/suonoforma01-1b.eps"
  }
}