\version "2.20.0"

\score {
  \override TextScript.extra-offset = #'(-4 . 0)
c8_\markup{
 \general-align #Y #DOWN{
    %\with-dimensions #'(0 . 0) #'(0 . 0)
    \eps-file #Y #3 #"home/davide/gitlab/DavideTedesco/avidi_lumi_and_evo_ensemble/pippo.png"
  }
}
  
}

