%% Generated by lilypond-book
%% Options: [fragment,indent=0\mm,line-width=513\pt,quote,relative=2,staffsize=16]
\include "lilypond-book-preamble.ly"


% ****************************************************************
% Start cut-&-pastable-section
% ****************************************************************

#(set-global-staff-size 16)

\paper {
  indent = 0\mm
  line-width = 513\pt
  % offset the left padding, also add 1mm as lilypond creates cropped
  % images with a little space on the right
  line-width = #(- line-width (* mm  3.000000) (* mm 1))
  line-width = 513\pt - 2.0 * 0.4\in
  % offset the left padding, also add 1mm as lilypond creates cropped
  % images with a little space on the right
  line-width = #(- line-width (* mm  3.000000) (* mm 1))
}

\layout {
  
}



\relative c''
{


% ****************************************************************
% ly snippet contents follows:
% ****************************************************************
\sourcefileline 203

\new Staff \with{ \remove Time_signature_engraver       \remove Clef_engraver \hide barLine}
 \relative{
 % \override NoteHead.stem-attachment = #'(0 . -1.5)
 % \override NoteHead.stencil =
   % #(lambda (grob)
    %   (make-circle-stencil 0.6 0.2
      %   (> (ly:grob-property grob 'duration-log) 1)))
 % \override Staff.AccidentalPlacement.right-padding = #0.6

                   % \whistleOn 
                    b32 b16 b8  b4  b2  b2. b1  b (b4) b1. b1 (b2.) 
              } 
 }



% ****************************************************************
% end ly snippet
% ****************************************************************
}
