%% Generated by lilypond-book
%% Options: [fragment,indent=0\mm,line-width=513\pt,quote,relative=2,staffsize=16]
\include "lilypond-book-preamble.ly"


% ****************************************************************
% Start cut-&-pastable-section
% ****************************************************************

#(set-global-staff-size 16)

\paper {
  indent = 0\mm
  line-width = 513\pt
  % offset the left padding, also add 1mm as lilypond creates cropped
  % images with a little space on the right
  line-width = #(- line-width (* mm  3.000000) (* mm 1))
  line-width = 513\pt - 2.0 * 0.4\in
  % offset the left padding, also add 1mm as lilypond creates cropped
  % images with a little space on the right
  line-width = #(- line-width (* mm  3.000000) (* mm 1))
}

\layout {
  
}



\relative c''
{


% ****************************************************************
% ly snippet contents follows:
% ****************************************************************
\sourcefileline 398

\new Staff \with{ \remove Time_signature_engraver       \remove Clef_engraver \hide Staff.BarLine   

} {
\override Staff.StaffSymbol.line-count = #1
  \startStaff 
  \override Staff.NoteHead.style = #'triangle
                     b2^\markup{epsCD/pugno.eps}        
\stopStaff

		   
                    
}




% ****************************************************************
% end ly snippet
% ****************************************************************
}
