<?xml version="1.0" encoding="utf-8"?>
<!-- Generator: Adobe Illustrator 23.0.0, SVG Export Plug-In . SVG Version: 6.00 Build 0)  -->
<svg version="1.1" id="Capa_1" xmlns="http://www.w3.org/2000/svg" xmlns:xlink="http://www.w3.org/1999/xlink" x="0px" y="0px"
	 viewBox="0 0 262.9 262.9" style="enable-background:new 0 0 262.9 262.9;" xml:space="preserve">
<style type="text/css">
	.st0{fill:#FFFFFF;stroke:#000000;stroke-miterlimit:10;}
</style>
<g>
	<path d="M60.3,217c1,0,2.2-0.1,3.2-0.2c4.2-0.5,7.7-2,11.7-4.3v5.2c0,13.1,9.2,24.1,22,25.6c1,0.1,1.8,0.2,2.8,0.2
		c5.2,0,10.1-1.6,14.3-4.5c1,12.2,10.2,22.2,22.3,23.6c1,0.1,2,0.2,3,0.2c13.5,0,24.5-10.5,25.3-23.8c3.3,2.3,7.2,3.9,11.4,4.4
		c1,0.1,2.3,0.2,3.2,0.2c14,0,25.7-11.4,25.7-25.4v-86l5.6,5.6c4.7,4.7,10.9,7.2,17.6,7.2c6.8,0,13-2.6,17.8-7.4
		c9.6-9.6,9.8-25.1,0.6-35l-53.9-71l-1.2-15.3C191,7.2,183.3,0,174.1,0L75.6,0.1c-8.8,0-16.3,6.6-17.5,15.3l-2.4,18.2
		C48.1,45.8,42.8,62,39.3,81.8c-3.1,17.3-4.3,37.8-4.3,60.9v49C35.2,205.7,46.3,217,60.3,217z M70.2,16.9c0.4-2.8,2.7-4.7,5.6-4.7
		l98.5,0.1l0,0c2.9,0,5.4,2,5.6,5l1.4,18.7l0,0l56.4,74.4c5.2,5.2,5.2,13.6,0,18.7c-2.6,2.6-6,3.9-9.4,3.9c-3.4,0-6.8-1.3-9.4-3.9
		l-15.9-15c-1.2-1.2-2.5-1.7-3.9-1.7c-3.2,0-5.9,2.5-5.9,6.2v99.6c0,7.4-6.3,13.4-13.7,13.4c-0.5,0-1,0-1.6-0.1
		c-6.8-0.8-11.8-6.8-11.8-13.7v-68.6c0-3.6-2.9-6.4-6.5-6.4c-3.6,0-6.5,2.9-6.5,6.5v88.1c0,7.4-6.2,13.4-13.5,13.4
		c-0.5,0-1.1,0-1.6-0.1c-6.8-0.8-11.8-6.8-11.8-13.7v-87.8c0-3.6-2.9-6.5-6.5-6.5s-6.5,2.9-6.5,6.4v69c0,7.4-6,13.4-13.4,13.4
		c-0.5,0-0.7,0-1.2-0.1c-6.8-0.8-11.4-6.8-11.4-13.7v-68.4c0-3.7-3.8-7-7.5-7h-0.1c-3.4,0-5.4,3.1-5.4,6.5v42.4
		c0,6.9-5.4,12.9-12.2,13.7c-0.5,0.1-1,0.1-1.5,0.1c-7.4,0-13.3-6-13.3-13.4v-49c0-41.8,4.8-80.5,19.8-103.9
		c0.5-0.7,0.6-1.5,0.7-2.3L70.2,16.9z"/>
</g>
<path class="st0" d="M255.6,201.9"/>
</svg>
