<?xml version="1.0" encoding="iso-8859-1"?>
<!-- Generator: Adobe Illustrator 16.0.0, SVG Export Plug-In . SVG Version: 6.00 Build 0)  -->
<!DOCTYPE svg PUBLIC "-//W3C//DTD SVG 1.1//EN" "http://www.w3.org/Graphics/SVG/1.1/DTD/svg11.dtd">
<svg version="1.1" id="Capa_1" xmlns="http://www.w3.org/2000/svg" xmlns:xlink="http://www.w3.org/1999/xlink" x="0px" y="0px"
	 width="196.969px" height="196.969px" viewBox="0 0 196.969 196.969" style="enable-background:new 0 0 196.969 196.969;"
	 xml:space="preserve">
<g>
	<g>
		<ellipse cx="86.979" cy="16.476" rx="16.695" ry="16.476"/>
		<path d="M55.376,42.7c0-4.115,3.333-7.455,7.448-7.455h48.184c4.115,0,7.48,3.34,7.48,7.455l-0.061,22.078
			c-0.002,1.107,0.437,2.169,1.219,2.951l20.201,20.191c2.324,2.325,2.33,6.094,0.004,8.418c-1.162,1.163-2.683,1.744-4.207,1.744
			c-1.521,0-3.034-0.581-4.196-1.744l-24.56-24.57v116.27c0,4.933-3.984,8.931-8.917,8.931s-8.917-3.998-8.917-8.931v-67.473h-4.298
			v67.473c0,4.933-3.985,8.931-8.917,8.931c-4.932,0-8.917-3.998-8.917-8.931v-83.349c-1.027,1.785-2.947,2.986-5.154,2.986
			c-3.288,0-6.394-2.666-6.394-5.953L55.376,42.7L55.376,42.7z"/>
	</g>
</g>
<g>
</g>
<g>
</g>
<g>
</g>
<g>
</g>
<g>
</g>
<g>
</g>
<g>
</g>
<g>
</g>
<g>
</g>
<g>
</g>
<g>
</g>
<g>
</g>
<g>
</g>
<g>
</g>
<g>
</g>
</svg>
