%!PS-Adobe-3.0 EPSF-3.0
%%Creator: cairo 1.16.0 (https://cairographics.org)
%%CreationDate: Wed Jun 29 15:57:33 2022
%%Pages: 1
%%DocumentData: Clean7Bit
%%LanguageLevel: 2
%%BoundingBox: 0 0 75 149
%%EndComments
%%BeginProlog
50 dict begin
/q { gsave } bind def
/Q { grestore } bind def
/cm { 6 array astore concat } bind def
/w { setlinewidth } bind def
/J { setlinecap } bind def
/j { setlinejoin } bind def
/M { setmiterlimit } bind def
/d { setdash } bind def
/m { moveto } bind def
/l { lineto } bind def
/c { curveto } bind def
/h { closepath } bind def
/re { exch dup neg 3 1 roll 5 3 roll moveto 0 rlineto
      0 exch rlineto 0 rlineto closepath } bind def
/S { stroke } bind def
/f { fill } bind def
/f* { eofill } bind def
/n { newpath } bind def
/W { clip } bind def
/W* { eoclip } bind def
/BT { } bind def
/ET { } bind def
/BDC { mark 3 1 roll /BDC pdfmark } bind def
/EMC { mark /EMC pdfmark } bind def
/cairo_store_point { /cairo_point_y exch def /cairo_point_x exch def } def
/Tj { show currentpoint cairo_store_point } bind def
/TJ {
  {
    dup
    type /stringtype eq
    { show } { -0.001 mul 0 cairo_font_matrix dtransform rmoveto } ifelse
  } forall
  currentpoint cairo_store_point
} bind def
/cairo_selectfont { cairo_font_matrix aload pop pop pop 0 0 6 array astore
    cairo_font exch selectfont cairo_point_x cairo_point_y moveto } bind def
/Tf { pop /cairo_font exch def /cairo_font_matrix where
      { pop cairo_selectfont } if } bind def
/Td { matrix translate cairo_font_matrix matrix concatmatrix dup
      /cairo_font_matrix exch def dup 4 get exch 5 get cairo_store_point
      /cairo_font where { pop cairo_selectfont } if } bind def
/Tm { 2 copy 8 2 roll 6 array astore /cairo_font_matrix exch def
      cairo_store_point /cairo_font where { pop cairo_selectfont } if } bind def
/g { setgray } bind def
/rg { setrgbcolor } bind def
/d1 { setcachedevice } bind def
/cairo_data_source {
  CairoDataIndex CairoData length lt
    { CairoData CairoDataIndex get /CairoDataIndex CairoDataIndex 1 add def }
    { () } ifelse
} def
/cairo_flush_ascii85_file { cairo_ascii85_file status { cairo_ascii85_file flushfile } if } def
/cairo_image { image cairo_flush_ascii85_file } def
/cairo_imagemask { imagemask cairo_flush_ascii85_file } def
%%EndProlog
%%BeginSetup
%%EndSetup
%%Page: 1 1
%%BeginPageSetup
%%PageBoundingBox: 0 0 75 149
%%EndPageSetup
q 0 0 75 149 rectclip
1 0 0 -1 0 149 cm q
0 g
49.043 18.48 m 49.043 25.031 43.664 30.34 37.027 30.34 c 30.391 30.34 25.012
 25.031 25.012 18.48 c 25.012 11.934 30.391 6.625 37.027 6.625 c 43.664 
6.625 49.043 11.934 49.043 18.48 c h
49.043 18.48 m f
72.996 16.684 m 57.5 1.254 l 55.824 -0.418 53.113 -0.418 51.441 1.254 c
 49.766 2.926 49.766 5.641 51.438 7.312 c 63.309 19.152 l 63.418 19.258 
63.477 19.402 63.477 19.547 c 63.477 19.695 63.418 19.84 63.309 19.945 c
 51.18 32.066 l 22.871 32.066 l 10.738 19.945 l 10.633 19.84 10.574 19.695
 10.574 19.551 c 10.574 19.402 10.633 19.258 10.738 19.152 c 22.586 7.309
 l 24.258 5.637 24.258 2.926 22.586 1.254 c 20.914 -0.418 18.199 -0.418 
16.527 1.254 c 1.254 16.527 l 0.453 17.332 0 18.422 0 19.559 c 0 20.695 
0.453 21.785 1.254 22.59 c 22.574 43.914 l 22.574 142.051 l 22.574 145.598
 25.445 148.477 28.996 148.477 c 32.543 148.477 35.414 145.598 35.414 142.051
 c 35.414 93.508 l 38.637 93.508 l 38.637 142.051 l 38.637 145.598 41.508
 148.477 45.059 148.477 c 48.605 148.477 51.477 145.598 51.477 142.051 c
 51.477 43.914 l 72.637 22.77 l 74.312 21.098 74.668 18.359 72.996 16.684
 c h
72.996 16.684 m f
Q Q
showpage
%%Trailer
end
%%EOF
