%!PS-Adobe-3.0 EPSF-3.0
%%Creator: cairo 1.16.0 (https://cairographics.org)
%%CreationDate: Wed Jun 29 15:57:06 2022
%%Pages: 1
%%DocumentData: Clean7Bit
%%LanguageLevel: 2
%%BoundingBox: 0 0 65 148
%%EndComments
%%BeginProlog
50 dict begin
/q { gsave } bind def
/Q { grestore } bind def
/cm { 6 array astore concat } bind def
/w { setlinewidth } bind def
/J { setlinecap } bind def
/j { setlinejoin } bind def
/M { setmiterlimit } bind def
/d { setdash } bind def
/m { moveto } bind def
/l { lineto } bind def
/c { curveto } bind def
/h { closepath } bind def
/re { exch dup neg 3 1 roll 5 3 roll moveto 0 rlineto
      0 exch rlineto 0 rlineto closepath } bind def
/S { stroke } bind def
/f { fill } bind def
/f* { eofill } bind def
/n { newpath } bind def
/W { clip } bind def
/W* { eoclip } bind def
/BT { } bind def
/ET { } bind def
/BDC { mark 3 1 roll /BDC pdfmark } bind def
/EMC { mark /EMC pdfmark } bind def
/cairo_store_point { /cairo_point_y exch def /cairo_point_x exch def } def
/Tj { show currentpoint cairo_store_point } bind def
/TJ {
  {
    dup
    type /stringtype eq
    { show } { -0.001 mul 0 cairo_font_matrix dtransform rmoveto } ifelse
  } forall
  currentpoint cairo_store_point
} bind def
/cairo_selectfont { cairo_font_matrix aload pop pop pop 0 0 6 array astore
    cairo_font exch selectfont cairo_point_x cairo_point_y moveto } bind def
/Tf { pop /cairo_font exch def /cairo_font_matrix where
      { pop cairo_selectfont } if } bind def
/Td { matrix translate cairo_font_matrix matrix concatmatrix dup
      /cairo_font_matrix exch def dup 4 get exch 5 get cairo_store_point
      /cairo_font where { pop cairo_selectfont } if } bind def
/Tm { 2 copy 8 2 roll 6 array astore /cairo_font_matrix exch def
      cairo_store_point /cairo_font where { pop cairo_selectfont } if } bind def
/g { setgray } bind def
/rg { setrgbcolor } bind def
/d1 { setcachedevice } bind def
/cairo_data_source {
  CairoDataIndex CairoData length lt
    { CairoData CairoDataIndex get /CairoDataIndex CairoDataIndex 1 add def }
    { () } ifelse
} def
/cairo_flush_ascii85_file { cairo_ascii85_file status { cairo_ascii85_file flushfile } if } def
/cairo_image { image cairo_flush_ascii85_file } def
/cairo_imagemask { imagemask cairo_flush_ascii85_file } def
%%EndProlog
%%BeginSetup
%%EndSetup
%%Page: 1 1
%%BeginPageSetup
%%PageBoundingBox: 0 0 65 148
%%EndPageSetup
q 0 0 65 148 rectclip
1 0 0 -1 0 148 cm q
0 g
36.227 12.355 m 36.227 19.18 30.617 24.715 23.703 24.715 c 16.789 24.715
 11.184 19.18 11.184 12.355 c 11.184 5.531 16.789 0 23.703 0 c 30.617 0 
36.227 5.531 36.227 12.355 c h
36.227 12.355 m f
0 32.023 m 0 28.938 2.5 26.434 5.586 26.434 c 41.727 26.434 l 44.812 26.434
 47.336 28.938 47.336 32.023 c 47.289 48.582 l 47.289 49.414 47.617 50.211
 48.203 50.797 c 63.355 65.941 l 65.098 67.684 65.102 70.512 63.359 72.254
 c 62.484 73.125 61.344 73.562 60.203 73.562 c 59.062 73.562 57.926 73.125
 57.055 72.254 c 38.637 53.824 l 38.637 141.027 l 38.637 144.727 35.648 
147.727 31.949 147.727 c 28.246 147.727 25.262 144.727 25.262 141.027 c 
25.262 90.422 l 22.035 90.422 l 22.035 141.027 l 22.035 144.727 19.047 147.727
 15.348 147.727 c 11.648 147.727 8.66 144.727 8.66 141.027 c 8.66 78.516
 l 7.891 79.855 6.449 80.758 4.797 80.758 c 2.328 80.758 0 78.758 0 76.293
 c h
0 32.023 m f
Q Q
showpage
%%Trailer
end
%%EOF
