<?xml version="1.0" encoding="utf-8"?>
<!-- Generator: Adobe Illustrator 23.0.0, SVG Export Plug-In . SVG Version: 6.00 Build 0)  -->
<svg version="1.1" id="Capa_1" xmlns="http://www.w3.org/2000/svg" xmlns:xlink="http://www.w3.org/1999/xlink" x="0px" y="0px"
	 viewBox="0 0 297.2 297.2" style="enable-background:new 0 0 297.2 297.2;" xml:space="preserve">
<g>
	<path d="M254.2,147.2c-3.1-2.4-6.7-4.1-10.6-4.9c0.3-0.5,0.5-0.9,0.7-1.4l2.4-2.4c9.3-9.3,10.2-23.9,2.3-34
		c-3.8-4.8-9-7.9-14.8-9.1c0.4-0.8,0.8-1.5,1.1-2.3c6.3-9.1,6.2-21.4-0.8-30.3c-3.8-4.8-9-7.9-14.8-9.1c4.8-8.8,4.2-19.8-2.2-27.9
		c-4.8-6.1-12.1-9.6-19.9-9.6c-6.3,0-12.2,2.2-16.8,6.3c-0.7-4-2.4-7.8-5-11.2c-4.8-6.1-12.1-9.6-19.9-9.6l0,0
		c-6.8,0-13.2,2.6-17.9,7.4L77.1,69.9l-0.2-8.1c-0.1-13.8-11.4-25-25.2-25C38,36.7,26.9,47.5,26.4,61l-12.1,88.3l-10,11.6
		c-6,7-5.6,17.5,0.9,24L20,199.7c-4.6,6.9-3.8,16.3,2.2,22.2l69.7,69.6c3.3,3.3,7.7,5.1,12.4,5.1c3.9,0,7.7-1.3,10.7-3.6l14.5-11.2
		c14-3.3,29.4-10.8,45.9-22.3c14.4-10.1,30-23.5,46.3-39.8l34.6-34.6c5.1-5.1,7.8-12.2,7.4-19.4
		C263.4,158.4,259.9,151.6,254.2,147.2z M188.1,32c2.6-2.6,6-3.9,9.5-3.9c3.9,0,7.8,1.7,10.5,5.1c4.3,5.4,3.5,13.2-1.3,18l-6.2,6.2
		c-1,0.6-1.9,1.3-2.7,2.1c-0.7-4-2.4-7.8-5-11.2c-3.3-4.1-7.6-7-12.5-8.5L188.1,32z M146.4,17.5c2.6-2.6,6-3.9,9.5-3.9
		c3.9,0,7.8,1.7,10.5,5.1c4.3,5.4,3.5,13.2-1.3,18l-70.9,70.2l-0.2-8.1C93.8,91,90.2,84,84.5,79.4L146.4,17.5z M13.6,176.4
		c-2.1-2.1-2.2-5.4-0.3-7.6l12.3-14.3c0,0,0,0,0,0L38.3,62c0-7.3,6-13.2,13.2-13.2s13.2,6,13.2,13.2l0.3,12
		c-12,1.6-21.3,11.7-21.8,24.1l-12.1,88.3l-3.5,4.1L13.6,176.4z M247.9,176.5l-34.6,34.6c-29.6,29.6-60.5,53.3-87.7,59.2
		c-0.8,0.2-1.6,0.5-2.3,1l-15.7,12c-1,0.8-2.2,1.2-3.4,1.2c-1.4,0-2.9-0.6-4-1.6l-69.7-69.6c-2.1-2.1-2.2-5.4-0.3-7.6l12.3-14.3
		c0,0,0,0,0,0L55.4,99c0-7.3,6-13.2,13.2-13.2s13.2,6,13.2,13.2l0.6,21.8c0.1,3.6,3.1,6,6.2,6c1.5,0,3.1-0.6,4.3-1.8l70.4-70.4
		c2.6-2.6,6-3.9,9.5-3.9c3.9,0,7.8,1.7,10.5,5.1c4.3,5.4,3.5,13.2-1.3,18l-48.5,48.5c-2.5,2.5-2.5,6.6,0,9.1l0,0
		c1.3,1.3,2.9,1.9,4.6,1.9s3.3-0.6,4.6-1.9l62.4-62.4c2.6-2.6,6-3.9,9.5-3.9c3.9,0,7.8,1.7,10.5,5.1c4.3,5.4,3.5,13.2-1.3,18
		l-62.1,62.1c-2.6,2.6-2.6,6.7,0,9.2c1.3,1.3,2.9,1.9,4.6,1.9c1.6,0,3.3-0.6,4.6-1.9l48.8-48.8c2.6-2.6,6-3.9,9.5-3.9
		c3.9,0,7.8,1.7,10.5,5.1c4.3,5.4,3.5,13.2-1.3,18l-48.3,48.4c-2.6,2.6-2.6,6.8,0,9.5l0.1,0.1c1.2,1.2,2.8,1.8,4.4,1.8
		c1.6,0,3.2-0.6,4.4-1.8l30-30c2.7-2.7,6.3-4.1,9.9-4.1c2.9,0,5.7,0.9,8.1,2.8C253.1,161.6,253.5,171,247.9,176.5z"/>
</g>
</svg>
