%% Generated by lilypond-book
%% Options: [fragment,indent=0\mm,line-width=345\pt,quote,relative=2,staffsize=16]
\include "lilypond-book-preamble.ly"


% ****************************************************************
% Start cut-&-pastable-section
% ****************************************************************

#(set-global-staff-size 16)

\paper {
  indent = 0\mm
  line-width = 345\pt
  % offset the left padding, also add 1mm as lilypond creates cropped
  % images with a little space on the right
  line-width = #(- line-width (* mm  3.000000) (* mm 1))
  line-width = 345\pt - 2.0 * 0.4\in
  % offset the left padding, also add 1mm as lilypond creates cropped
  % images with a little space on the right
  line-width = #(- line-width (* mm  3.000000) (* mm 1))
}

\layout {
  
}



\relative c''
{


% ****************************************************************
% ly snippet contents follows:
% ****************************************************************
\sourcefileline 66

%\new Staff \with{ \remove Time_signature_engraver       \remove Clef_engraver}
%\override Staff.StaffSymbol.line-count = #1
 % \startStaff 
                   % \xNote b4\pp\>  %\hideNH \hideStem  b b b                      
%\stopStaff



% ****************************************************************
% end ly snippet
% ****************************************************************
}
