%!PS-Adobe-3.0 EPSF-3.0
%%Creator: cairo 1.16.0 (https://cairographics.org)
%%CreationDate: Wed Jun 29 15:57:04 2022
%%Pages: 1
%%DocumentData: Clean7Bit
%%LanguageLevel: 2
%%BoundingBox: 0 0 93 147
%%EndComments
%%BeginProlog
50 dict begin
/q { gsave } bind def
/Q { grestore } bind def
/cm { 6 array astore concat } bind def
/w { setlinewidth } bind def
/J { setlinecap } bind def
/j { setlinejoin } bind def
/M { setmiterlimit } bind def
/d { setdash } bind def
/m { moveto } bind def
/l { lineto } bind def
/c { curveto } bind def
/h { closepath } bind def
/re { exch dup neg 3 1 roll 5 3 roll moveto 0 rlineto
      0 exch rlineto 0 rlineto closepath } bind def
/S { stroke } bind def
/f { fill } bind def
/f* { eofill } bind def
/n { newpath } bind def
/W { clip } bind def
/W* { eoclip } bind def
/BT { } bind def
/ET { } bind def
/BDC { mark 3 1 roll /BDC pdfmark } bind def
/EMC { mark /EMC pdfmark } bind def
/cairo_store_point { /cairo_point_y exch def /cairo_point_x exch def } def
/Tj { show currentpoint cairo_store_point } bind def
/TJ {
  {
    dup
    type /stringtype eq
    { show } { -0.001 mul 0 cairo_font_matrix dtransform rmoveto } ifelse
  } forall
  currentpoint cairo_store_point
} bind def
/cairo_selectfont { cairo_font_matrix aload pop pop pop 0 0 6 array astore
    cairo_font exch selectfont cairo_point_x cairo_point_y moveto } bind def
/Tf { pop /cairo_font exch def /cairo_font_matrix where
      { pop cairo_selectfont } if } bind def
/Td { matrix translate cairo_font_matrix matrix concatmatrix dup
      /cairo_font_matrix exch def dup 4 get exch 5 get cairo_store_point
      /cairo_font where { pop cairo_selectfont } if } bind def
/Tm { 2 copy 8 2 roll 6 array astore /cairo_font_matrix exch def
      cairo_store_point /cairo_font where { pop cairo_selectfont } if } bind def
/g { setgray } bind def
/rg { setrgbcolor } bind def
/d1 { setcachedevice } bind def
/cairo_data_source {
  CairoDataIndex CairoData length lt
    { CairoData CairoDataIndex get /CairoDataIndex CairoDataIndex 1 add def }
    { () } ifelse
} def
/cairo_flush_ascii85_file { cairo_ascii85_file status { cairo_ascii85_file flushfile } if } def
/cairo_image { image cairo_flush_ascii85_file } def
/cairo_imagemask { imagemask cairo_flush_ascii85_file } def
%%EndProlog
%%BeginSetup
%%EndSetup
%%Page: 1 1
%%BeginPageSetup
%%PageBoundingBox: 0 0 93 147
%%EndPageSetup
q 0 0 93 147 rectclip
1 0 0 -1 0 147 cm q
0 g
66.375 12.25 m 66.375 19.012 60.816 24.496 53.961 24.496 c 47.109 24.496
 41.551 19.012 41.551 12.25 c 41.551 5.484 47.109 0 53.961 0 c 60.816 0 
66.375 5.484 66.375 12.25 c h
66.375 12.25 m f
90.715 134.922 m 71.316 116.703 l 69.746 115.227 68.855 113.168 68.855 
111.02 c 68.855 30.637 l 68.855 28.258 66.93 26.328 64.551 26.328 c 57.914
 26.328 45.375 26.328 39.875 26.328 c 38.574 26.328 37.246 26.598 36.262
 27.582 c 21.93 41.906 l 20.977 42.859 19.43 42.859 18.477 41.906 c 7.555
 30.984 l 5.828 29.254 3.023 29.254 1.297 30.98 c -0.434 32.711 -0.434 35.512
 1.297 37.238 c 14.5 50.441 l 17.641 53.582 22.734 53.582 25.875 50.441 
c 36.645 39.672 l 37.074 39.238 37.773 39.238 38.207 39.672 c 38.641 40.105
 38.641 40.805 38.207 41.238 c 26.078 53.363 l 24.516 54.93 22.398 55.805
 20.188 55.805 c 17.977 55.805 15.855 54.926 14.293 53.363 c 2.82 41.891
 l 2.266 42.105 1.746 42.438 1.297 42.883 c -0.43 44.613 -0.43 47.414 1.297
 49.141 c 14.516 62.359 l 17.656 65.5 22.75 65.5 25.891 62.359 c 39.113 
49.133 l 39.113 80.398 l 21.426 98.715 l 18.582 101.656 16.996 105.586 16.996
 109.676 c 16.996 139.883 l 16.996 143.551 19.965 146.523 23.629 146.523
 c 27.297 146.523 30.266 143.551 30.266 139.883 c 30.266 111.824 l 30.266
 109.797 31.055 107.855 32.461 106.402 c 48.559 89.766 l 55.586 89.766 l
 55.586 113.633 l 55.586 117.785 57.301 121.75 60.324 124.59 c 81.629 144.602
 l 82.91 145.805 84.535 146.398 86.16 146.398 c 87.93 146.398 89.699 145.695
 91.008 144.301 c 93.516 141.629 93.387 137.43 90.715 134.922 c h
90.715 134.922 m f
Q Q
showpage
%%Trailer
end
%%EOF
