%!PS-Adobe-3.0 EPSF-3.0
%%Creator: cairo 1.16.0 (https://cairographics.org)
%%CreationDate: Wed Jun 29 15:57:04 2022
%%Pages: 1
%%DocumentData: Clean7Bit
%%LanguageLevel: 2
%%BoundingBox: 0 0 164 198
%%EndComments
%%BeginProlog
50 dict begin
/q { gsave } bind def
/Q { grestore } bind def
/cm { 6 array astore concat } bind def
/w { setlinewidth } bind def
/J { setlinecap } bind def
/j { setlinejoin } bind def
/M { setmiterlimit } bind def
/d { setdash } bind def
/m { moveto } bind def
/l { lineto } bind def
/c { curveto } bind def
/h { closepath } bind def
/re { exch dup neg 3 1 roll 5 3 roll moveto 0 rlineto
      0 exch rlineto 0 rlineto closepath } bind def
/S { stroke } bind def
/f { fill } bind def
/f* { eofill } bind def
/n { newpath } bind def
/W { clip } bind def
/W* { eoclip } bind def
/BT { } bind def
/ET { } bind def
/BDC { mark 3 1 roll /BDC pdfmark } bind def
/EMC { mark /EMC pdfmark } bind def
/cairo_store_point { /cairo_point_y exch def /cairo_point_x exch def } def
/Tj { show currentpoint cairo_store_point } bind def
/TJ {
  {
    dup
    type /stringtype eq
    { show } { -0.001 mul 0 cairo_font_matrix dtransform rmoveto } ifelse
  } forall
  currentpoint cairo_store_point
} bind def
/cairo_selectfont { cairo_font_matrix aload pop pop pop 0 0 6 array astore
    cairo_font exch selectfont cairo_point_x cairo_point_y moveto } bind def
/Tf { pop /cairo_font exch def /cairo_font_matrix where
      { pop cairo_selectfont } if } bind def
/Td { matrix translate cairo_font_matrix matrix concatmatrix dup
      /cairo_font_matrix exch def dup 4 get exch 5 get cairo_store_point
      /cairo_font where { pop cairo_selectfont } if } bind def
/Tm { 2 copy 8 2 roll 6 array astore /cairo_font_matrix exch def
      cairo_store_point /cairo_font where { pop cairo_selectfont } if } bind def
/g { setgray } bind def
/rg { setrgbcolor } bind def
/d1 { setcachedevice } bind def
/cairo_data_source {
  CairoDataIndex CairoData length lt
    { CairoData CairoDataIndex get /CairoDataIndex CairoDataIndex 1 add def }
    { () } ifelse
} def
/cairo_flush_ascii85_file { cairo_ascii85_file status { cairo_ascii85_file flushfile } if } def
/cairo_image { image cairo_flush_ascii85_file } def
/cairo_imagemask { imagemask cairo_flush_ascii85_file } def
%%EndProlog
%%BeginSetup
%%EndSetup
%%Page: 1 1
%%BeginPageSetup
%%PageBoundingBox: 0 0 164 198
%%EndPageSetup
q 0 0 164 198 rectclip
1 0 0 -1 0 198 cm q
0 g
18.977 162.75 m 19.727 162.75 20.625 162.676 21.375 162.602 c 24.523 162.227
 27.148 161.102 30.148 159.375 c 30.148 163.273 l 30.148 173.102 37.051 
181.352 46.648 182.477 c 47.398 182.551 48 182.625 48.75 182.625 c 52.648
 182.625 56.324 181.426 59.477 179.25 c 60.227 188.398 67.125 195.898 76.199
 196.949 c 76.949 197.023 77.699 197.102 78.449 197.102 c 88.574 197.102
 96.824 189.227 97.426 179.25 c 99.898 180.977 102.824 182.176 105.977 182.551
 c 106.727 182.625 107.699 182.699 108.375 182.699 c 118.875 182.699 127.648
 174.148 127.648 163.648 c 127.648 99.148 l 131.852 103.352 l 135.375 106.875
 140.023 108.75 145.051 108.75 c 150.148 108.75 154.801 106.801 158.398 
103.199 c 165.602 96 165.75 84.375 158.852 76.949 c 118.426 23.699 l 117.523
 12.227 l 117 5.398 111.227 0 104.324 0 c 30.449 0.074 l 23.852 0.074 18.227
 5.023 17.324 11.551 c 15.523 25.199 l 9.824 34.352 5.852 46.5 3.227 61.352
 c 0.898 74.324 0 89.699 0 107.023 c 0 143.773 l 0.148 154.273 8.477 162.75
 18.977 162.75 c h
26.398 12.676 m 26.699 10.574 28.426 9.148 30.602 9.148 c 104.477 9.227
 l 106.648 9.227 108.523 10.727 108.676 12.977 c 109.727 27 l 152.023 82.801
 l 155.926 86.699 155.926 93 152.023 96.824 c 150.074 98.773 147.523 99.75
 144.977 99.75 c 142.426 99.75 139.875 98.773 137.926 96.824 c 126 85.574
 l 125.102 84.676 124.125 84.301 123.074 84.301 c 120.676 84.301 118.648
 86.176 118.648 88.949 c 118.648 163.648 l 118.648 169.199 113.926 173.699
 108.375 173.699 c 108 173.699 107.625 173.699 107.176 173.625 c 102.074
 173.023 98.324 168.523 98.324 163.352 c 98.324 111.898 l 98.324 109.199
 96.148 107.102 93.449 107.102 c 90.75 107.102 88.574 109.273 88.574 111.977
 c 88.574 178.051 l 88.574 183.602 83.926 188.102 78.449 188.102 c 78.074
 188.102 77.625 188.102 77.25 188.023 c 72.148 187.426 68.398 182.926 68.398
 177.75 c 68.398 111.898 l 68.398 109.199 66.227 107.023 63.523 107.023 
c 60.824 107.023 58.648 109.199 58.648 111.824 c 58.648 163.574 l 58.648
 169.125 54.148 173.625 48.602 173.625 c 48.227 173.625 48.074 173.625 47.699
 173.551 c 42.602 172.949 39.148 168.449 39.148 163.273 c 39.148 111.977
 l 39.148 109.199 36.301 106.727 33.523 106.727 c 33.449 106.727 l 30.898
 106.727 29.398 109.051 29.398 111.602 c 29.398 143.398 l 29.398 148.574
 25.352 153.074 20.25 153.676 c 19.875 153.75 19.5 153.75 19.125 153.75 
c 13.574 153.75 9.148 149.25 9.148 143.699 c 9.148 106.949 l 9.148 75.602
 12.75 46.574 24 29.023 c 24.375 28.5 24.449 27.898 24.523 27.301 c h
26.398 12.676 m f
Q Q
showpage
%%Trailer
end
%%EOF
