%!PS-Adobe-3.0 EPSF-3.0
%%Creator: cairo 1.16.0 (https://cairographics.org)
%%CreationDate: Wed Jun 29 10:03:03 2022
%%Pages: 1
%%DocumentData: Clean7Bit
%%LanguageLevel: 2
%%BoundingBox: 0 0 153 137
%%EndComments
%%BeginProlog
50 dict begin
/q { gsave } bind def
/Q { grestore } bind def
/cm { 6 array astore concat } bind def
/w { setlinewidth } bind def
/J { setlinecap } bind def
/j { setlinejoin } bind def
/M { setmiterlimit } bind def
/d { setdash } bind def
/m { moveto } bind def
/l { lineto } bind def
/c { curveto } bind def
/h { closepath } bind def
/re { exch dup neg 3 1 roll 5 3 roll moveto 0 rlineto
      0 exch rlineto 0 rlineto closepath } bind def
/S { stroke } bind def
/f { fill } bind def
/f* { eofill } bind def
/n { newpath } bind def
/W { clip } bind def
/W* { eoclip } bind def
/BT { } bind def
/ET { } bind def
/BDC { mark 3 1 roll /BDC pdfmark } bind def
/EMC { mark /EMC pdfmark } bind def
/cairo_store_point { /cairo_point_y exch def /cairo_point_x exch def } def
/Tj { show currentpoint cairo_store_point } bind def
/TJ {
  {
    dup
    type /stringtype eq
    { show } { -0.001 mul 0 cairo_font_matrix dtransform rmoveto } ifelse
  } forall
  currentpoint cairo_store_point
} bind def
/cairo_selectfont { cairo_font_matrix aload pop pop pop 0 0 6 array astore
    cairo_font exch selectfont cairo_point_x cairo_point_y moveto } bind def
/Tf { pop /cairo_font exch def /cairo_font_matrix where
      { pop cairo_selectfont } if } bind def
/Td { matrix translate cairo_font_matrix matrix concatmatrix dup
      /cairo_font_matrix exch def dup 4 get exch 5 get cairo_store_point
      /cairo_font where { pop cairo_selectfont } if } bind def
/Tm { 2 copy 8 2 roll 6 array astore /cairo_font_matrix exch def
      cairo_store_point /cairo_font where { pop cairo_selectfont } if } bind def
/g { setgray } bind def
/rg { setrgbcolor } bind def
/d1 { setcachedevice } bind def
/cairo_data_source {
  CairoDataIndex CairoData length lt
    { CairoData CairoDataIndex get /CairoDataIndex CairoDataIndex 1 add def }
    { () } ifelse
} def
/cairo_flush_ascii85_file { cairo_ascii85_file status { cairo_ascii85_file flushfile } if } def
/cairo_image { image cairo_flush_ascii85_file } def
/cairo_imagemask { imagemask cairo_flush_ascii85_file } def
%%EndProlog
%%BeginSetup
%%EndSetup
%%Page: 1 1
%%BeginPageSetup
%%PageBoundingBox: 0 0 153 137
%%EndPageSetup
q 0 0 153 137 rectclip
1 0 0 -1 0 137 cm q
0.00392157 g
93.691 94.801 m 93.691 93.75 l 93.473 92.336 92.961 90.98 92.191 89.773
 c 93.992 89.773 l 98.293 89.852 101.973 86.691 102.543 82.426 c 102.543
 82.125 102.617 81.824 102.617 81.523 c 102.641 79.805 102.113 78.125 101.117
 76.727 c 105.188 76.402 108.473 73.273 108.992 69.227 c 109.051 68.902 
109.078 68.578 109.066 68.25 c 109.078 63.754 105.602 60.016 101.117 59.699
 c 101.895 58.586 102.387 57.301 102.543 55.949 c 102.602 55.578 102.625
 55.203 102.617 54.824 c 102.617 50.121 98.848 46.281 94.141 46.199 c 65.266
 46.199 l 67.141 44.324 l 68.723 42.789 69.613 40.68 69.617 38.477 c 69.625
 35.098 67.629 32.039 64.535 30.688 c 61.441 29.336 57.84 29.949 55.367 
32.25 c 31.594 50.324 l 26.418 50.773 l 23.363 51.012 21.008 53.562 21.016
 56.625 c 21.016 89.699 l 21.027 92.648 23.199 95.141 26.117 95.551 c 32.266
 96.375 l 36.316 98.926 41.793 100.648 48.391 101.852 c 54.992 103.051 61.066
 103.273 68.793 103.273 c 85.219 103.273 l 87.465 103.273 89.621 102.383
 91.211 100.793 c 92.801 99.203 93.691 97.047 93.691 94.801 c h
26.641 91.5 m 25.727 91.352 25.055 90.555 25.066 89.625 c 25.066 56.551
 l 25.023 55.582 25.754 54.754 26.719 54.676 c 32.941 54.227 l 57.992 35.324
 l 59.742 33.609 62.543 33.609 64.293 35.324 c 66.008 37.074 66.008 39.875
 64.293 41.625 c 59.266 46.949 l 58.875 47.289 58.652 47.781 58.668 48.301
 c 58.664 49.438 59.633 50.336 60.766 50.25 c 94.141 50.25 l 96.641 50.289
 98.641 52.328 98.641 54.824 c 98.652 55.004 98.629 55.184 98.566 55.352
 c 98.297 57.656 96.312 59.379 93.992 59.324 c 70.969 59.324 l 69.777 59.324
 68.824 60.312 68.867 61.5 c 68.867 62.703 69.84 63.676 71.043 63.676 c 
100.594 63.676 l 103.09 63.715 105.094 65.754 105.094 68.25 c 105.098 68.43
 105.074 68.605 105.016 68.773 c 104.68 71.035 102.727 72.699 100.441 72.676
 c 70.969 72.676 l 68.512 73.129 68.512 76.645 70.969 77.102 c 94.066 77.102
 l 96.539 77.059 98.566 79.051 98.566 81.523 c 98.566 81.977 l 98.195 84.207
 96.254 85.832 93.992 85.801 c 71.043 85.801 l 69.75 85.914 68.75 86.98 
68.719 88.273 c 68.719 89.398 69.691 90.074 70.891 90.074 c 85.066 90.074
 l 87.391 90.094 89.344 91.82 89.641 94.125 c 89.699 94.293 89.723 94.473
 89.719 94.648 c 89.719 97.137 87.703 99.148 85.219 99.148 c 68.793 99.148
 l 54.766 99.148 41.793 97.5 33.992 92.477 c 33.738 92.332 33.457 92.254
 33.168 92.25 c h
26.641 91.5 m f
150.992 59.176 m 138.992 59.176 l 137.488 59.168 136.203 58.098 135.918
 56.625 c 131.312 30.41 111.93 9.238 86.223 2.34 c 60.516 -4.559 33.141 
4.062 16.027 24.449 c -1.086 44.836 -4.832 73.293 6.418 97.414 c 17.668 
121.539 41.875 136.957 68.492 136.949 c 71.887 136.59 74.461 133.727 74.461
 130.312 c 74.461 126.898 71.887 124.035 68.492 123.676 c 47.203 123.707
 27.789 111.508 18.578 92.316 c 9.367 73.125 11.996 50.348 25.336 33.758
 c 38.68 17.168 60.363 9.715 81.082 14.598 c 101.805 19.477 117.883 35.824
 122.418 56.625 c 122.781 57.973 121.707 59.273 120.316 59.176 c 109.742
 59.176 l 108.242 59.176 107.793 60.148 108.766 61.273 c 128.641 85.648 
l 129.48 86.785 131.176 86.785 132.016 85.648 c 151.969 61.273 l 152.867
 60.148 152.418 59.176 150.992 59.176 c h
150.992 59.176 m f
Q Q
showpage
%%Trailer
end
%%EOF
