%!PS-Adobe-3.0 EPSF-3.0
%%Creator: cairo 1.16.0 (https://cairographics.org)
%%CreationDate: Tue Jun 28 16:15:14 2022
%%Pages: 1
%%DocumentData: Clean7Bit
%%LanguageLevel: 2
%%BoundingBox: 0 0 198 222
%%EndComments
%%BeginProlog
50 dict begin
/q { gsave } bind def
/Q { grestore } bind def
/cm { 6 array astore concat } bind def
/w { setlinewidth } bind def
/J { setlinecap } bind def
/j { setlinejoin } bind def
/M { setmiterlimit } bind def
/d { setdash } bind def
/m { moveto } bind def
/l { lineto } bind def
/c { curveto } bind def
/h { closepath } bind def
/re { exch dup neg 3 1 roll 5 3 roll moveto 0 rlineto
      0 exch rlineto 0 rlineto closepath } bind def
/S { stroke } bind def
/f { fill } bind def
/f* { eofill } bind def
/n { newpath } bind def
/W { clip } bind def
/W* { eoclip } bind def
/BT { } bind def
/ET { } bind def
/BDC { mark 3 1 roll /BDC pdfmark } bind def
/EMC { mark /EMC pdfmark } bind def
/cairo_store_point { /cairo_point_y exch def /cairo_point_x exch def } def
/Tj { show currentpoint cairo_store_point } bind def
/TJ {
  {
    dup
    type /stringtype eq
    { show } { -0.001 mul 0 cairo_font_matrix dtransform rmoveto } ifelse
  } forall
  currentpoint cairo_store_point
} bind def
/cairo_selectfont { cairo_font_matrix aload pop pop pop 0 0 6 array astore
    cairo_font exch selectfont cairo_point_x cairo_point_y moveto } bind def
/Tf { pop /cairo_font exch def /cairo_font_matrix where
      { pop cairo_selectfont } if } bind def
/Td { matrix translate cairo_font_matrix matrix concatmatrix dup
      /cairo_font_matrix exch def dup 4 get exch 5 get cairo_store_point
      /cairo_font where { pop cairo_selectfont } if } bind def
/Tm { 2 copy 8 2 roll 6 array astore /cairo_font_matrix exch def
      cairo_store_point /cairo_font where { pop cairo_selectfont } if } bind def
/g { setgray } bind def
/rg { setrgbcolor } bind def
/d1 { setcachedevice } bind def
/cairo_data_source {
  CairoDataIndex CairoData length lt
    { CairoData CairoDataIndex get /CairoDataIndex CairoDataIndex 1 add def }
    { () } ifelse
} def
/cairo_flush_ascii85_file { cairo_ascii85_file status { cairo_ascii85_file flushfile } if } def
/cairo_image { image cairo_flush_ascii85_file } def
/cairo_imagemask { imagemask cairo_flush_ascii85_file } def
%%EndProlog
%%BeginSetup
%%EndSetup
%%Page: 1 1
%%BeginPageSetup
%%PageBoundingBox: 0 0 198 222
%%EndPageSetup
q 0 0 198 222 rectclip
1 0 0 -1 0 222 cm q
0 g
190.613 109.125 m 188.289 107.324 185.586 106.051 182.664 105.449 c 182.887
 105.074 183.039 104.773 183.188 104.398 c 184.988 102.602 l 191.961 95.625
 192.637 84.676 186.711 77.102 c 183.863 73.5 179.961 71.176 175.613 70.273
 c 175.914 69.676 176.211 69.148 176.438 68.551 c 181.164 61.727 181.086
 52.5 175.836 45.824 c 172.988 42.227 169.086 39.898 164.738 39 c 168.336
 32.398 167.887 24.148 163.086 18.074 c 159.488 13.5 154.012 10.875 148.164
 10.875 c 143.438 10.875 139.012 12.523 135.562 15.602 c 135.039 12.602 
133.762 9.75 131.812 7.199 c 128.211 2.625 122.738 0 116.887 0 c 111.789
 0 106.988 1.949 103.461 5.551 c 57.789 51.148 l 57.637 45.074 l 57.562 
34.727 49.086 26.324 38.738 26.324 c 28.461 26.25 20.137 34.352 19.762 44.477
 c 10.688 110.699 l 3.188 119.398 l -1.312 124.648 -1.012 132.523 3.863 
137.398 c 14.961 148.5 l 11.512 153.676 12.113 160.727 16.613 165.148 c 
68.887 217.352 l 71.363 219.824 74.664 221.176 78.188 221.176 c 81.113 221.176
 83.961 220.199 86.211 218.477 c 97.086 210.074 l 107.586 207.602 119.137
 201.977 131.512 193.352 c 142.312 185.773 154.012 175.727 166.238 163.5
 c 192.188 137.551 l 196.012 133.727 198.039 128.398 197.738 123 c 197.512
 117.523 194.887 112.426 190.613 109.125 c h
141.039 22.727 m 142.988 20.773 145.539 19.801 148.164 19.801 c 151.086
 19.801 154.012 21.074 156.039 23.625 c 159.262 27.676 158.664 33.523 155.062
 37.125 c 150.414 41.773 l 149.664 42.227 148.988 42.75 148.387 43.352 c
 147.863 40.352 146.586 37.5 144.637 34.949 c 142.164 31.875 138.938 29.699
 135.262 28.574 c h
109.762 11.852 m 111.711 9.898 114.262 8.926 116.887 8.926 c 119.812 8.926
 122.738 10.199 124.762 12.75 c 127.988 16.801 127.387 22.648 123.789 26.25
 c 70.613 78.898 l 70.461 72.824 l 70.312 66.977 67.613 61.727 63.336 58.273
 c h
10.164 131.023 m 8.586 129.449 8.512 126.977 9.938 125.324 c 19.164 114.602
 l 28.688 45.227 l 28.688 39.75 33.188 35.324 38.586 35.324 c 43.988 35.324
 48.488 39.824 48.488 45.227 c 48.711 54.227 l 39.711 55.426 32.738 63 32.363
 72.301 c 23.289 138.523 l 20.664 141.602 l h
185.887 131.102 m 159.938 157.051 l 137.738 179.25 114.562 197.023 94.164
 201.449 c 93.562 201.602 92.961 201.824 92.438 202.199 c 80.664 211.199
 l 79.914 211.801 79.012 212.102 78.113 212.102 c 77.062 212.102 75.938 
211.648 75.113 210.898 c 22.836 158.699 l 21.262 157.125 21.188 154.648 
22.613 153 c 31.836 142.273 l 41.512 72.977 l 41.512 67.5 46.012 63.074 
51.414 63.074 c 56.812 63.074 61.312 67.574 61.312 72.977 c 61.762 89.324
 l 61.836 92.023 64.086 93.824 66.414 93.824 c 67.539 93.824 68.738 93.375
 69.637 92.477 c 122.438 39.676 l 124.387 37.727 126.938 36.75 129.562 36.75
 c 132.488 36.75 135.414 38.023 137.438 40.574 c 140.664 44.625 140.062 
50.477 136.461 54.074 c 100.086 90.449 l 98.211 92.324 98.211 95.398 100.086
 97.273 c 101.062 98.25 102.262 98.699 103.539 98.699 c 104.812 98.699 106.012
 98.25 106.988 97.273 c 153.789 50.477 l 155.738 48.523 158.289 47.551 160.914
 47.551 c 163.836 47.551 166.762 48.824 168.789 51.375 c 172.012 55.426 
171.414 61.273 167.812 64.875 c 121.238 111.449 l 119.289 113.398 119.289
 116.477 121.238 118.352 c 122.211 119.324 123.414 119.773 124.688 119.773
 c 125.887 119.773 127.164 119.324 128.137 118.352 c 164.738 81.75 l 166.688
 79.801 169.238 78.824 171.863 78.824 c 174.789 78.824 177.711 80.102 179.738
 82.648 c 182.961 86.699 182.363 92.551 178.762 96.148 c 142.539 132.449
 l 140.586 134.398 140.586 137.551 142.539 139.574 c 142.613 139.648 l 143.512
 140.551 144.711 141 145.914 141 c 147.113 141 148.312 140.551 149.211 139.648
 c 171.711 117.148 l 173.738 115.125 176.438 114.074 179.137 114.074 c 181.312
 114.074 183.414 114.75 185.211 116.176 c 189.789 119.926 190.086 126.977
 185.887 131.102 c h
185.887 131.102 m f
Q Q
showpage
%%Trailer
end
%%EOF
