%!PS-Adobe-3.0 EPSF-3.0
%%Creator: cairo 1.16.0 (https://cairographics.org)
%%CreationDate: Wed Jun 29 15:57:05 2022
%%Pages: 1
%%DocumentData: Clean7Bit
%%LanguageLevel: 2
%%BoundingBox: 0 0 65 149
%%EndComments
%%BeginProlog
50 dict begin
/q { gsave } bind def
/Q { grestore } bind def
/cm { 6 array astore concat } bind def
/w { setlinewidth } bind def
/J { setlinecap } bind def
/j { setlinejoin } bind def
/M { setmiterlimit } bind def
/d { setdash } bind def
/m { moveto } bind def
/l { lineto } bind def
/c { curveto } bind def
/h { closepath } bind def
/re { exch dup neg 3 1 roll 5 3 roll moveto 0 rlineto
      0 exch rlineto 0 rlineto closepath } bind def
/S { stroke } bind def
/f { fill } bind def
/f* { eofill } bind def
/n { newpath } bind def
/W { clip } bind def
/W* { eoclip } bind def
/BT { } bind def
/ET { } bind def
/BDC { mark 3 1 roll /BDC pdfmark } bind def
/EMC { mark /EMC pdfmark } bind def
/cairo_store_point { /cairo_point_y exch def /cairo_point_x exch def } def
/Tj { show currentpoint cairo_store_point } bind def
/TJ {
  {
    dup
    type /stringtype eq
    { show } { -0.001 mul 0 cairo_font_matrix dtransform rmoveto } ifelse
  } forall
  currentpoint cairo_store_point
} bind def
/cairo_selectfont { cairo_font_matrix aload pop pop pop 0 0 6 array astore
    cairo_font exch selectfont cairo_point_x cairo_point_y moveto } bind def
/Tf { pop /cairo_font exch def /cairo_font_matrix where
      { pop cairo_selectfont } if } bind def
/Td { matrix translate cairo_font_matrix matrix concatmatrix dup
      /cairo_font_matrix exch def dup 4 get exch 5 get cairo_store_point
      /cairo_font where { pop cairo_selectfont } if } bind def
/Tm { 2 copy 8 2 roll 6 array astore /cairo_font_matrix exch def
      cairo_store_point /cairo_font where { pop cairo_selectfont } if } bind def
/g { setgray } bind def
/rg { setrgbcolor } bind def
/d1 { setcachedevice } bind def
/cairo_data_source {
  CairoDataIndex CairoData length lt
    { CairoData CairoDataIndex get /CairoDataIndex CairoDataIndex 1 add def }
    { () } ifelse
} def
/cairo_flush_ascii85_file { cairo_ascii85_file status { cairo_ascii85_file flushfile } if } def
/cairo_image { image cairo_flush_ascii85_file } def
/cairo_imagemask { imagemask cairo_flush_ascii85_file } def
%%EndProlog
%%BeginSetup
%%EndSetup
%%Page: 1 1
%%BeginPageSetup
%%PageBoundingBox: 0 0 65 149
%%EndPageSetup
q 0 0 65 149 rectclip
1 0 0 -1 0 149 cm q
0 g
53.605 12.383 m 53.605 19.227 47.988 24.77 41.055 24.77 c 34.125 24.77 
28.508 19.227 28.508 12.383 c 28.508 5.543 34.125 0 41.055 0 c 47.988 0 
53.605 5.543 53.605 12.383 c h
53.605 12.383 m f
64.812 32.098 m 64.812 29.004 62.305 26.496 59.215 26.496 c 22.992 26.496
 l 19.898 26.496 17.371 29.004 17.371 32.098 c 17.414 48.699 l 17.418 49.527
 17.09 50.324 16.5 50.91 c 1.312 66.09 l -0.434 67.84 -0.438 70.672 1.309
 72.418 c 2.184 73.293 3.324 73.73 4.473 73.73 c 5.617 73.73 6.754 73.293
 7.625 72.418 c 26.09 53.949 l 26.09 141.352 l 26.09 145.059 29.086 148.062
 32.793 148.062 c 36.5 148.062 39.496 145.059 39.496 141.352 c 39.496 90.629
 l 42.727 90.629 l 42.727 141.352 l 42.727 145.059 45.723 148.062 49.43 
148.062 c 53.137 148.062 56.133 145.059 56.133 141.352 c 56.133 78.695 l
 56.902 80.039 58.348 80.941 60.008 80.941 c 62.48 80.941 64.812 78.938 
64.812 76.465 c h
64.812 32.098 m f
Q Q
showpage
%%Trailer
end
%%EOF
