%!PS-Adobe-3.0 EPSF-3.0
%%Creator: cairo 1.16.0 (https://cairographics.org)
%%CreationDate: Tue Jun 28 16:15:14 2022
%%Pages: 1
%%DocumentData: Clean7Bit
%%LanguageLevel: 2
%%BoundingBox: 1 0 166 198
%%EndComments
%%BeginProlog
50 dict begin
/q { gsave } bind def
/Q { grestore } bind def
/cm { 6 array astore concat } bind def
/w { setlinewidth } bind def
/J { setlinecap } bind def
/j { setlinejoin } bind def
/M { setmiterlimit } bind def
/d { setdash } bind def
/m { moveto } bind def
/l { lineto } bind def
/c { curveto } bind def
/h { closepath } bind def
/re { exch dup neg 3 1 roll 5 3 roll moveto 0 rlineto
      0 exch rlineto 0 rlineto closepath } bind def
/S { stroke } bind def
/f { fill } bind def
/f* { eofill } bind def
/n { newpath } bind def
/W { clip } bind def
/W* { eoclip } bind def
/BT { } bind def
/ET { } bind def
/BDC { mark 3 1 roll /BDC pdfmark } bind def
/EMC { mark /EMC pdfmark } bind def
/cairo_store_point { /cairo_point_y exch def /cairo_point_x exch def } def
/Tj { show currentpoint cairo_store_point } bind def
/TJ {
  {
    dup
    type /stringtype eq
    { show } { -0.001 mul 0 cairo_font_matrix dtransform rmoveto } ifelse
  } forall
  currentpoint cairo_store_point
} bind def
/cairo_selectfont { cairo_font_matrix aload pop pop pop 0 0 6 array astore
    cairo_font exch selectfont cairo_point_x cairo_point_y moveto } bind def
/Tf { pop /cairo_font exch def /cairo_font_matrix where
      { pop cairo_selectfont } if } bind def
/Td { matrix translate cairo_font_matrix matrix concatmatrix dup
      /cairo_font_matrix exch def dup 4 get exch 5 get cairo_store_point
      /cairo_font where { pop cairo_selectfont } if } bind def
/Tm { 2 copy 8 2 roll 6 array astore /cairo_font_matrix exch def
      cairo_store_point /cairo_font where { pop cairo_selectfont } if } bind def
/g { setgray } bind def
/rg { setrgbcolor } bind def
/d1 { setcachedevice } bind def
/cairo_data_source {
  CairoDataIndex CairoData length lt
    { CairoData CairoDataIndex get /CairoDataIndex CairoDataIndex 1 add def }
    { () } ifelse
} def
/cairo_flush_ascii85_file { cairo_ascii85_file status { cairo_ascii85_file flushfile } if } def
/cairo_image { image cairo_flush_ascii85_file } def
/cairo_imagemask { imagemask cairo_flush_ascii85_file } def
%%EndProlog
%%BeginSetup
%%EndSetup
%%Page: 1 1
%%BeginPageSetup
%%PageBoundingBox: 1 0 166 198
%%EndPageSetup
q 1 0 165 198 rectclip
1 0 0 -1 0 198 cm q
0 g
146.477 34.352 m 145.727 34.352 144.824 34.426 144.074 34.5 c 140.926 34.875
 138.301 36 135.301 37.727 c 135.301 33.824 l 135.301 24 128.398 15.75 118.801
 14.625 c 118.051 14.551 117.449 14.477 116.699 14.477 c 112.801 14.477 
109.125 15.676 105.977 17.852 c 105.227 8.699 98.324 1.199 89.25 0.148 c
 88.5 0.074 87.75 0 87 0 c 76.875 0 68.625 7.875 68.023 17.852 c 65.551 
16.125 62.625 14.926 59.477 14.551 c 58.727 14.477 57.75 14.398 57.074 14.398
 c 46.574 14.398 37.801 22.949 37.801 33.449 c 37.801 97.949 l 33.602 93.75
 l 30.074 90.227 25.426 88.352 20.398 88.352 c 15.301 88.352 10.648 90.301
 7.051 93.898 c -0.148 101.102 -0.301 112.727 6.602 120.148 c 47.023 173.398
 l 47.926 184.875 l 48.449 191.699 54.227 197.102 61.125 197.102 c 135 197.023
 l 141.602 197.023 147.227 192.074 148.125 185.551 c 149.926 171.898 l 155.625
 162.75 159.602 150.602 162.227 135.75 c 164.551 122.773 165.449 107.398
 165.449 90.074 c 165.449 53.324 l 165.301 42.824 156.977 34.352 146.477
 34.352 c h
139.051 184.426 m 138.75 186.523 137.023 187.949 134.852 187.949 c 60.977
 187.875 l 58.801 187.875 56.926 186.375 56.773 184.125 c 55.727 170.102
 l 13.426 114.301 l 9.523 110.398 9.523 104.102 13.426 100.273 c 15.375 
98.324 17.926 97.352 20.477 97.352 c 23.023 97.352 25.574 98.324 27.523 
100.273 c 39.449 111.523 l 40.352 112.426 41.324 112.801 42.375 112.801 
c 44.773 112.801 46.801 110.926 46.801 108.148 c 46.801 33.449 l 46.801 
27.898 51.523 23.398 57.074 23.398 c 57.449 23.398 57.824 23.398 58.273 
23.477 c 63.375 24.074 67.125 28.574 67.125 33.75 c 67.125 85.199 l 67.125
 87.898 69.301 90 72 90 c 74.699 90 76.875 87.824 76.875 85.125 c 76.875
 19.051 l 76.875 13.5 81.523 9 87 9 c 87.375 9 87.824 9 88.199 9.074 c 93.301
 9.676 97.051 14.176 97.051 19.352 c 97.051 85.199 l 97.051 87.898 99.227
 90.074 101.926 90.074 c 104.625 90.074 106.801 87.898 106.801 85.273 c 
106.801 33.523 l 106.801 27.977 111.301 23.477 116.852 23.477 c 117.227 
23.477 117.375 23.477 117.75 23.551 c 122.852 24.148 126.301 28.648 126.301
 33.824 c 126.301 85.125 l 126.301 87.898 129.148 90.375 131.926 90.375 
c 132 90.375 l 134.551 90.375 136.051 88.051 136.051 85.5 c 136.051 53.699
 l 136.051 48.523 140.102 44.023 145.199 43.426 c 145.574 43.352 145.949
 43.352 146.324 43.352 c 151.875 43.352 156.301 47.852 156.301 53.398 c 
156.301 90.148 l 156.301 121.5 152.699 150.523 141.449 168.074 c 141.074
 168.602 141 169.199 140.926 169.801 c h
139.051 184.426 m f
Q Q
showpage
%%Trailer
end
%%EOF
